Mt 16 25	http://www.biblindex.info/en/biblical/content/ref/GNT_Mt_16_25	24,2 p.162	0:20 unclass:no_rel_found_by_AGWN(κἂν,αὐτήν);	1:20 unclass:no_rel_found_by_AGWN(ποὺς,αὐτήν);	2:20 unclass:no_rel_found_by_AGWN(κἂν,αὐτήν);	3:4 lem(ἡ,τὴν); repl_flex(n,a);	4 unclass:lemma_missing;	6 unclass:lemma_missing;	7 unclass:lemma_missing;	9:13 NOP(ἂν,ἂν); repl_pos(g,c);	10:1 NOP(γὰρ,γὰρ); NOPmorph(g,g);	11:6 repl_syn(ἐνταῦθα,αὐτοῦ);	12:20 unclass:no_rel_found_by_AGWN(ἀπόληται,αὐτήν);	13:20 unclass:no_rel_found_by_AGWN(ὑπὲρ,αὐτήν);	14:20 unclass:no_rel_found_by_AGWN(Χριστοῦ,αὐτήν);	16:17 repl_syn(ἐκεῖ,αὐτοῦ);	17 unclass:lemma_missing;																				
Mt 13 16-17	http://www.biblindex.info/en/biblical/content/ref/GNT_Mt_13_16	29,6 p.178	0 unclass:lemma_missing;	2 unclass:lemma_missing;	3:0 lem(ὑμεῖς,ὑμῶν); repl_flex(n,g);	4 unclass:lemma_missing;	5:3 NOP(οἱ,οἱ); repl_pos(p,l);	6:6 repl_syn(ὁρῶντες,βλέπουσιν);	7:8 NOP(καὶ,καὶ); NOPmorph(c,c);	8:37 unclass:no_rel_found_by_AGWN(ἀκούοντες,ἤκουσαν);	9:26 NOP(ἃ,ἃ); repl_pos(l,p);	10 unclass:lemma_missing;	11 unclass:lemma_missing;	12 unclass:lemma_missing;	13:21 NOP(προϕῆται,προϕῆται); NOPmorph(nn,nn);	14 unclass:lemma_missing;	16:37 unclass:no_rel_found_by_AGWN(ἐὰν,ἤκουσαν);	17:1 repl_co-hypo(ποιῆτε,δὲ);	18:34 NOP(ἃ,ἃ); repl_pos(l,p);	19 unclass:lemma_missing;																	
Mt 7 7a	http://www.biblindex.info/en/biblical/content/ref/GNT_Mt_7_7	42,19 p.222	0:14 unclass:no_rel_found_by_AGWN(ὁ,ὑμῖν);	1:3 repl_co-hypo(πατὴρ,δοθήσεται);	2:14 unclass:no_rel_found_by_AGWN(ὁ,ὑμῖν);	3:14 unclass:no_rel_found_by_AGWN(ἀγαθὸς,ὑμῖν);																															
Mt 5 3a	http://www.biblindex.info/en/biblical/content/ref/GNT_Mt_5_3	17,5 p.144	0:3 repl_syn(καὶ,τῷ);	1 unclass:lemma_missing;	2:1 lem(ὁ,οἱ); NOPmorph(ln,ln);	3 unclass:lemma_missing;	5 unclass:lemma_missing;	6 unclass:lemma_missing;	7:9 lem(οἱ,ἡ); NOPmorph(ln,ln);	8 unclass:lemma_missing;	10 unclass:lemma_missing;	11:11 unclass:no_rel_found_by_AGWN(πῶς,οὐρανῶν);	13 unclass:lemma_missing;	14:11 lem(τῷ,τῶν); repl_flex(d,g);	15 unclass:lemma_missing;	17 unclass:lemma_missing;																					
Mt 5 3b	http://www.biblindex.info/en/biblical/content/ref/GNT_Mt_5_3	19,2 p.148	0:3 repl_syn(ὃ,τῷ);	1:11 unclass:no_rel_found_by_AGWN(μὲν,οὐρανῶν);	2:11 unclass:no_rel_found_by_AGWN(κατὰ,οὐρανῶν);	3:4 lem(πνεῦμα,πνεύματι); repl_flex(a,d);	4 unclass:lemma_missing;																														
Mt 5 42	http://www.biblindex.info/en/biblical/content/ref/GNT_Mt_5_42	31,9 p.184	0 unclass:lemma_missing;	1:10 unclass:no_rel_found_by_AGWN(παντὶ,μὴ);	2:0 NOP(τῷ,τῷ); NOPmorph(ld,ld);	3 unclass:lemma_missing;	4:2 NOP(σε,σε); NOPmorph(pa,pa);	5:10 unclass:no_rel_found_by_AGWN(δίδου,μὴ);	7 unclass:lemma_missing;																												
Mt 5 44	http://www.biblindex.info/en/biblical/content/ref/GNT_Mt_5_44	22,3 p.158	0:6 lem(ὅ,τοὺς); repl_flex(n,a);	1:13 unclass:no_rel_found_by_AGWN(γε,ὑμᾶς);	2:9 NOP(καὶ,καὶ); NOPmorph(c,c);	3:12 lem(τοὺς,τῶν); repl_flex(a,g);	4:7 NOP(ἐχθροὺς,ἐχθροὺς); NOPmorph(na,na);	5:5 lem(ἀγαπᾶν,ἀγαπᾶτε); NOPmorph(v,v);	6:2 repl_co-hypo(παραινῶν,λέγω);																												
Mt 19 21	http://www.biblindex.info/en/biblical/content/ref/GNT_Mt_19_21	14,5 p.138	0:2 lem(τὸ,ὁ); NOPmorph(ln,ln);	1:15 repl_syn(οὖν,καὶ);	2:28 unclass:no_rel_found_by_AGWN(ἀποτάξασθαι,μοι);	3:28 unclass:no_rel_found_by_AGWN(πᾶσι,μοι);	4:13 lem(τοῖς,τὰ); repl_flex(d,a);	5 unclass:lemma_missing;	6:11 repl_co-hypo(καὶ,πώλησόν);	7:16 repl_co-hypo(πωλῆσαι,δὸς);	8 unclass:lemma_missing;	9:17 lem(τὰ,τοῖς); repl_flex(a,d);	10 unclass:lemma_missing;																								
Mt 5 48	http://www.biblindex.info/en/biblical/content/ref/GNT_Mt_5_48	1,1 p.100	0 unclass:lemma_missing;	1 unclass:lemma_missing;																																	
Mt 20 28	http://www.biblindex.info/en/biblical/content/ref/GNT_Mt_20_28	37,4 p.194/196	0:5 repl_syn(καὶ,οὐκ);	1 unclass:lemma_missing;	2:16 unclass:no_rel_found_by_AGWN(ἑαυτὸν,πολλῶν);	3:16 unclass:no_rel_found_by_AGWN(ἐπιδιδοὺς,πολλῶν);																															
Mt 5 3	http://www.biblindex.info/en/biblical/content/ref/GNT_Mt_5_3	16,3 p.142	0 unclass:lemma_missing;	1:11 unclass:no_rel_found_by_AGWN(ὑπὸ,οὐρανῶν);	2:1 lem(τοῦ,οἱ); repl_flex(g,n);	3 unclass:lemma_missing;	4:3 repl_syn(καὶ,τῷ);	5:2 lem(πτωχὸς,πτωχοὶ); repl_pos(a,n);	6:9 lem(τῷ,ἡ); repl_flex(d,n);	7 unclass:lemma_missing;	8:11 unclass:no_rel_found_by_AGWN(καλούμενος,οὐρανῶν);	10 unclass:lemma_missing;	11:11 unclass:no_rel_found_by_AGWN(ἕτοιμος,οὐρανῶν);	12:12 lem(οὐρανοῦ,οὐρανῶν); NOPmorph(ng,ng);	13:10 unclass:no_rel_found_by_AGWN(βασιλείας,τῶν);																						
Mt 5 6	http://www.biblindex.info/en/biblical/content/ref/GNT_Mt_5_6	17,5 p.144	0:3 NOP(καὶ,καὶ); NOPmorph(c,c);	1 unclass:lemma_missing;	3 unclass:lemma_missing;	4 unclass:lemma_missing;	5:1 NOP(οἱ,οἱ); NOPmorph(ln,ln);	6:2 NOP(πεινῶντες,πεινῶντες); NOPmorph(tn,tn);	7:10 repl_co-hypo(καὶ,χορτασθήσονται);	8:4 NOP(διψῶντες,διψῶντες); NOPmorph(tn,tn);	9:5 NOP(τὴν,τὴν); repl_flex(a,g);	10:8 unclass:no_rel_found_by_AGWN(δικαιοσύνην,αὐτοὶ);	11:8 unclass:no_rel_found_by_AGWN(τοῦ,αὐτοὶ);	12:8 unclass:no_rel_found_by_AGWN(θεοῦ,αὐτοὶ);	14 unclass:lemma_missing;																						
Mt 5 8	http://www.biblindex.info/en/biblical/content/ref/GNT_Mt_5_8	19,3 p.148	0:9 unclass:no_rel_found_by_AGWN(ἵνα,ὄψονται);	1:2 lem(καθαρὸς,καθαροὶ); NOPmorph(an,an);	2:1 lem(τῇ,οἱ); repl_flex(d,n);	3 unclass:lemma_missing;	4:10 lem(ἴδῃς,ὄψονται); NOPmorph(v,v);	5:3 lem(τὸν,τῇ); repl_flex(a,d);	6 unclass:lemma_missing;																												
Mt 23 9	http://www.biblindex.info/en/biblical/content/ref/GNT_Mt_23_9	23,2 p.160	0 unclass:lemma_missing;	1:2 NOP(μὴ,μὴ); NOPmorph(d,d);	2:15 unclass:no_rel_found_by_AGWN(κάλει,οὐράνιος);	3:15 unclass:no_rel_found_by_AGWN(σεαυτῷ,οὐράνιος);	4 unclass:lemma_missing;	5:0 repl_syn(ἐπὶ,καὶ);	6:7 NOP(γῆς,γῆς); NOPmorph(ng,ng);	8 unclass:lemma_missing;																											
Mt 11 25	http://www.biblindex.info/en/biblical/content/ref/GNT_Mt_11_25	31,1 p.180	0 unclass:lemma_missing;																																		
Mt 22 32	http://www.biblindex.info/en/biblical/content/ref/GNT_Mt_22_32	42,19 p.222	0 unclass:lemma_missing;	1:19 unclass:no_rel_found_by_AGWN(Χριστοῦ,ζώντων);	3:2 lem(τοῦ,ὁ); repl_flex(g,n);	4 unclass:lemma_missing;	5:19 unclass:no_rel_found_by_AGWN(ζώντων,ζώντων);	6:5 NOP(καὶ,καὶ); NOPmorph(c,c);	7:18 NOP(νεκρῶν,νεκρῶν); NOPmorph(ng,ng);																												
Mt 11 11	http://www.biblindex.info/en/biblical/content/ref/GNT_Mt_11_11	31,3 p.180/182	0:1 repl_co-hypo(κατὰ,λέγω);	1:11 lem(τὰ,τοῦ); repl_flex(a,g);	2:23 lem(αὐτὰ,αὐτοῦ); repl_flex(a,g);	3:4 repl_syn(καὶ,οὐκ);	4:14 lem(τοῦ,ὁ); repl_pos(l,p); repl_flex(g,n);	5 unclass:lemma_missing;	6:6 NOP(ἐν,ἐν); NOPmorph(r,r);	7:7 NOP(γεννητοῖς,γεννητοῖς); NOPmorph(ad,ad);	8:8 NOP(γυναικῶν,γυναικῶν); NOPmorph(ng,ng);	9 unclass:lemma_missing;	10:18 lem(τὸν,τῇ); repl_flex(a,d);	11:22 unclass:no_rel_found_by_AGWN(ἐλάχιστον,ἐστιν);	12:17 NOP(ἐν,ἐν); NOPmorph(r,r);	13:20 lem(τῇ,τῶν); repl_flex(d,g);	14 unclass:lemma_missing;	15:22 unclass:no_rel_found_by_AGWN(τῶν,ἐστιν);	16:21 NOP(οὐρανῶν,οὐρανῶν); NOPmorph(ng,ng);	18 unclass:lemma_missing;	19:22 unclass:no_rel_found_by_AGWN(τὸν,ἐστιν);	20:22 unclass:no_rel_found_by_AGWN(ἑαυτοῦ,ἐστιν);	21 unclass:lemma_missing;	23:24 lem(εἶναι,ἐστιν); NOPmorph(h,h);	24 unclass:lemma_missing;	25 unclass:lemma_missing;											
Mt 5 44a	http://www.biblindex.info/en/biblical/content/ref/GNT_Mt_5_44	22,4 p.158	0:13 unclass:no_rel_found_by_AGWN(εἰ,ὑμᾶς);	1:1 NOP(δὲ,δὲ); NOPmorph(g,g);	2:6 NOP(τοὺς,τοὺς); NOPmorph(la,la);	3:7 NOP(ἐχθροὺς,ἐχθροὺς); NOPmorph(na,na);	4 unclass:lemma_missing;																														
Mt 22 38	http://www.biblindex.info/en/biblical/content/ref/GNT_Mt_22_38	27,3 p.172	0:25 unclass:no_rel_found_by_AGWN(περὶ,σου);	1:0 lem(τοῦ,ὁ); repl_flex(g,n);	2 unclass:lemma_missing;	3:15 NOP(καὶ,καὶ); NOPmorph(c,c);	4:25 unclass:no_rel_found_by_AGWN(περὶ,σου);	5:7 lem(τοῦ,τὸν); repl_flex(g,a);	6 unclass:lemma_missing;																												
Mt 22 39	http://www.biblindex.info/en/biblical/content/ref/GNT_Mt_22_39	28,1 p.174	0 unclass:lemma_missing;	1:0 repl_co-hypo(δὲ,δευτέρα);	2 unclass:lemma_missing;	3:7 repl_co-hypo(καὶ,πλησίον);	4 unclass:lemma_missing;	5:9 unclass:no_rel_found_by_AGWN(τι,σεαυτόν);	6 unclass:lemma_missing;	7 unclass:lemma_missing;	8:9 unclass:no_rel_found_by_AGWN(εἶναι,σεαυτόν);	9 unclass:lemma_missing;	10 unclass:lemma_missing;	12 unclass:lemma_missing;	13:9 unclass:no_rel_found_by_AGWN(ἀγαπήσεις,σεαυτόν);	14:6 NOP(τὸν,τὸν); NOPmorph(la,la);	15 unclass:lemma_missing;	16:8 NOP(σου,σου); NOPmorph(pg,pg);	17:9 NOP(ὡς,ὡς); NOPmorph(d,d);	18 unclass:lemma_missing;	20 unclass:lemma_missing;																
Mt 11 12	http://www.biblindex.info/en/biblical/content/ref/GNT_Mt_11_12	21,3 p.154	0:17 unclass:no_rel_found_by_AGWN(οὐδὲ,αὐτήν);	1:2 NOP(τῶν,τῶν); NOPmorph(lg,lg);	2:17 unclass:no_rel_found_by_AGWN(καθευδόντων,αὐτήν);	3:3 repl_co-hypo(καὶ,ἡμερῶν);	4 unclass:lemma_missing;	5:17 unclass:no_rel_found_by_AGWN(ἐστὶν,αὐτήν);	6:5 lem(ἡ,τοῦ); repl_flex(n,g);	7 unclass:lemma_missing;	8:9 lem(τοῦ,ἡ); repl_flex(g,n);	9:17 unclass:no_rel_found_by_AGWN(θεοῦ,αὐτήν);	11:1 repl_syn(ἀλλ',δὲ);	12:11 lem(οἱ,τῶν); repl_flex(n,g);	13 unclass:lemma_missing;	14:16 NOP(βιασταὶ,βιασταὶ); NOPmorph(nn,nn);	15:17 unclass:no_rel_found_by_AGWN(ἁρπάζουσιν,αὐτήν);	16 unclass:lemma_missing;																			
Mt 22 37	http://www.biblindex.info/en/biblical/content/ref/GNT_Mt_22_37	27,3 p.172	0:25 unclass:no_rel_found_by_AGWN(ἀγαπήσεις,σου);	1 unclass:lemma_missing;	2:0 lem(τὸν,ὁ); repl_flex(a,n);	3 unclass:lemma_missing;	4:9 NOP(σου,σου); NOPmorph(pg,pg);	5:25 unclass:no_rel_found_by_AGWN(ἐξ,σου);	6:11 lem(ὅλης,ὅλῃ); repl_flex(g,d);	7:7 lem(τῆς,τὸν); repl_flex(g,a);	8:3 hypo(ψυχῆς,αὐτῷ);	9:14 NOP(σου,σου); NOPmorph(pg,pg);	10:15 NOP(καὶ,καὶ); NOPmorph(c,c);	11:25 unclass:no_rel_found_by_AGWN(ἐξ,σου);	12:17 lem(ὅλης,ὅλῃ); repl_flex(g,d);	13:12 lem(τῆς,τῇ); repl_flex(g,d);	14:25 unclass:no_rel_found_by_AGWN(δυνάμεώς,σου);	15:20 NOP(σου,σου); NOPmorph(pg,pg);																			
Mt 19 21a	http://www.biblindex.info/en/biblical/content/ref/GNT_Mt_19_21	19,6 p.150	0:11 lem(πωλεῖς,πώλησόν); NOPmorph(v,v);	1:2 lem(τὰ,ὁ); repl_flex(a,n);	2 unclass:lemma_missing;	3:13 lem(οἱ,τὰ); repl_flex(n,a);	4:6 hyper(πτωχοὶ,θέλεις);	5:8 hyper(ἔχοις,εἶναι);	6:28 unclass:no_rel_found_by_AGWN(ἂν,μοι);	7:21 hyper(θησαυρὸν,ἕξεις);	8:23 NOP(ἐν,ἐν); NOPmorph(r,r);	9:24 NOP(οὐρανοῖς,οὐρανοῖς); NOPmorph(nd,nd);																									
Mt 7 1-2	http://www.biblindex.info/en/biblical/content/ref/GNT_Mt_7_1	33,4 p.188	0:0 upper(μὴ,Μὴ); NOPmorph(d,d);	1:1 lem(κρῖνε,κρίνετε); NOPmorph(v,v);	2 unclass:lemma_missing;	3 unclass:lemma_missing;	5 unclass:lemma_missing;	6:3 NOP(ἵνα,ἵνα); NOPmorph(c,c);	7:4 NOP(μὴ,μὴ); NOPmorph(d,d);	8:5 lem(κριθῇς,κριθῆτε); NOPmorph(v,v);	10:8 NOP(ᾧ,ᾧ); repl_pos(l,p);	11 unclass:lemma_missing;	12:10 repl_co-hypo(μετρεῖς,κρίματι);	14 unclass:lemma_missing;	15:14 NOP(καὶ,καὶ); NOPmorph(c,c);	16 unclass:lemma_missing;	17:20 lem(σοι,ὑμῖν); NOPmorph(pd,pd);																				
Mt 13 38	http://www.biblindex.info/en/biblical/content/ref/GNT_Mt_13_38	5,4 p.114/116	0:25 unclass:no_rel_found_by_AGWN(αὐτοῖς,πονηροῦ);	1:0 lem(τοῖς,ὁ); repl_flex(d,n);	2:4 lem(τῆς,ὁ); repl_flex(g,n);	3:25 unclass:no_rel_found_by_AGWN(βασιλείας,πονηροῦ);	4 unclass:lemma_missing;	5:25 unclass:no_rel_found_by_AGWN(ὑπ',πονηροῦ);	6:25 unclass:no_rel_found_by_AGWN(αὐτοῦ,πονηροῦ);	7:25 unclass:no_rel_found_by_AGWN(καλουμένοις,πονηροῦ);																											
Mt 12 35	http://www.biblindex.info/en/biblical/content/ref/GNT_Mt_12_35	14,5 p.138	0:18 unclass:no_rel_found_by_AGWN(ἵνα,πονηρά);	1:1 repl_syn(καλὸς,ἀγαθὸς);	2:10 NOP(καὶ,καὶ); NOPmorph(c,c);	3:5 lem(ἀγαθὸς,ἀγαθοῦ); repl_flex(n,g);	4:18 unclass:no_rel_found_by_AGWN(γενόμενος,πονηρά);	5:18 unclass:no_rel_found_by_AGWN(καὶ,πονηρά);	6 unclass:lemma_missing;	7:0 lem(τοῖς,ὁ); repl_flex(d,n);	8 unclass:lemma_missing;	9:18 unclass:no_rel_found_by_AGWN(χρῆσθαι,πονηρά);	10:18 unclass:no_rel_found_by_AGWN(δυνηθῇ,πονηρά);	11:8 repl_syn(καλῶς,ἀγαθά);																							
Mt 18 10	http://www.biblindex.info/en/biblical/content/ref/GNT_Mt_18_10	31,1 p.180	0:5 lem(μικροὺς,μικρῶν); repl_flex(a,g);																																		
Mt 10 40	http://www.biblindex.info/en/biblical/content/ref/GNT_Mt_10_40	30,5 p.180	0 unclass:lemma_missing;	1:12 unclass:no_rel_found_by_AGWN(ἐκ,με);	2:0 lem(τῶν,Ὁ); repl_pos(l,p); repl_flex(g,n);	3:12 unclass:no_rel_found_by_AGWN(ἐναντίων,με);	4:7 lem(τοὺς,ὁ); repl_pos(l,p); repl_flex(a,n);	5:12 unclass:no_rel_found_by_AGWN(ταῦτα,με);	6:12 unclass:no_rel_found_by_AGWN(μὴ,με);	7 unclass:lemma_missing;	8:3 repl_syn(αὐτοῖς,ἐμὲ);	9:12 unclass:no_rel_found_by_AGWN(εἰς,με);	10:11 lem(τὸ,τὸν); NOPmorph(la,la);	11:12 unclass:no_rel_found_by_AGWN(πῦρ,με);	12:12 unclass:no_rel_found_by_AGWN(ἐμβάλλει,με);	13:12 unclass:no_rel_found_by_AGWN(τὸ,με);	14:12 unclass:no_rel_found_by_AGWN(αἰώνιον,με);	16:6 repl_syn(ὡς,καὶ);	17:8 repl_syn(αὐτῷ,ἐμὲ);	18:12 unclass:no_rel_found_by_AGWN(μὴ,με);	19 unclass:lemma_missing;	21:12 unclass:no_rel_found_by_AGWN(καὶ,με);	22:12 unclass:no_rel_found_by_AGWN(ἀλλαχοῦ,με);	24 unclass:lemma_missing;	25:12 unclass:no_rel_found_by_AGWN(ὁ,με);	26:2 NOP(ὑμᾶς,ὑμᾶς); NOPmorph(pa,pa);	27:12 unclass:no_rel_found_by_AGWN(δεχόμενος,με);	28:13 lem(ἐμὲ,με); NOPmorph(pa,pa);	29:10 unclass:no_rel_found_by_AGWN(δέχεται,ἀποστείλαντά);	31:10 unclass:no_rel_found_by_AGWN(ὁ,ἀποστείλαντά);	32:10 unclass:no_rel_found_by_AGWN(ὑμᾶς,ἀποστείλαντά);	33:10 unclass:no_rel_found_by_AGWN(μὴ,ἀποστείλαντά);	34:10 unclass:no_rel_found_by_AGWN(δεχόμενος,ἀποστείλαντά);	35:10 unclass:no_rel_found_by_AGWN(ἐμὲ,ἀποστείλαντά);	36:10 unclass:no_rel_found_by_AGWN(ἀθετεῖ,ἀποστείλαντά);	38 unclass:lemma_missing;	
Mt 12 35a	http://www.biblindex.info/en/biblical/content/ref/GNT_Mt_12_35	15,1 p.138	0:2 repl_co-hypo(ψυχῆς,ἄνθρωπος);	2:0 lem(τὰ,ὁ); NOPmorph(ln,ln);	3:18 unclass:no_rel_found_by_AGWN(δὲ,πονηρά);	4 unclass:lemma_missing;	6:10 repl_syn(κἂν,καὶ);	7:18 unclass:no_rel_found_by_AGWN(μὲν,πονηρά);	8:4 lem(ἡ,τοῦ); repl_flex(n,g);	9:13 repl_co-hypo(ψυχὴ,ἄνθρωπος);	10:18 unclass:no_rel_found_by_AGWN(χρῆται,πονηρά);	11:1 repl_syn(καλῶς,ἀγαθὸς);	13:5 repl_syn(καλὰ,ἀγαθοῦ);	14:18 unclass:no_rel_found_by_AGWN(καὶ,πονηρά);	15:18 unclass:no_rel_found_by_AGWN(ταῦτα,πονηρά);	16:6 repl_co-hypo(δοκεῖ,θησαυροῦ);	18:18 unclass:no_rel_found_by_AGWN(ἐὰν,πονηρά);	19:18 unclass:no_rel_found_by_AGWN(δὲ,πονηρά);	20:12 lem(πονηρῶς,πονηρὸς); repl_flex('',n);	22 unclass:lemma_missing;	24:11 NOP(ὁ,ὁ); NOPmorph(ln,ln);	25:18 unclass:no_rel_found_by_AGWN(κελεύων,πονηρά);	26:18 unclass:no_rel_found_by_AGWN(ἀπαλλοτριοῦν,πονηρά);	27:15 lem(τὰ,τοῦ); repl_flex(a,g);	28 unclass:lemma_missing;												
Mt 22 37-39	http://www.biblindex.info/en/biblical/content/ref/GNT_Mt_22_37	29,1 p.176	0 unclass:lemma_missing;	1 unclass:lemma_missing;	2:65 repl_syn(μὲν,ὡς);	3:1 repl_co-hypo(οὖν,δὲ);	4:0 lem(ταῖς,ὁ); repl_flex(d,n);	5:6 hyper(ἐντολαῖς,κύριον);	6:64 unclass:no_rel_found_by_AGWN(ἀγάπην,σεαυτόν);	7:38 repl_co-hypo(εἰσηγεῖται,σπέρμα);	9 unclass:lemma_missing;	10:29 lem(δ',δὲ); NOPmorph(g,g);	11:3 lem(αὐτὴν,αὐτῷ); repl_pos(l,p); repl_flex(a,d);	12:19 repl_co-hypo(διῄρηκε,ψυχῇ);	14:15 NOP(καὶ,καὶ); NOPmorph(c,c);	15:64 unclass:no_rel_found_by_AGWN(ὅπου,σεαυτόν);	16:64 unclass:no_rel_found_by_AGWN(μὲν,σεαυτόν);	17:7 lem(τὰ,τὸν); NOPmorph(la,la);	18:64 unclass:no_rel_found_by_AGWN(πρωτεῖα,σεαυτόν);	19:12 lem(τῆς,τῇ); repl_flex(g,d);	20:64 unclass:no_rel_found_by_AGWN(ἀγάπης,σεαυτόν);	21:64 unclass:no_rel_found_by_AGWN(ἀνάπτει,σεαυτόν);	22:18 lem(τῷ,τῇ); NOPmorph(ld,ld);	23:8 lem(θεῷ,θεόν); repl_flex(d,a);	25:64 unclass:no_rel_found_by_AGWN(ὅπου,σεαυτόν);	26:36 NOP(δὲ,δὲ); NOPmorph(g,g);	27:24 lem(τὰ,τῇ); NOPmorph(la,la);	28:64 unclass:no_rel_found_by_AGWN(δευτερεῖα,σεαυτόν);	29 unclass:lemma_missing;	30:21 repl_syn(τῷ,καὶ);	31 unclass:lemma_missing;						
Mt 12 27	http://www.biblindex.info/en/biblical/content/ref/GNT_Mt_12_27	42,19 p.222	0:6 lem(τοῦ,τὰ); repl_flex(g,a);	1:20 unclass:no_rel_found_by_AGWN(ἁγίου,ὑμῶν);	2 unclass:lemma_missing;																																
Mt 22 37b	http://www.biblindex.info/en/biblical/content/ref/GNT_Mt_22_37	27,3 p.172	0 unclass:lemma_missing;	1 unclass:lemma_missing;	2 unclass:lemma_missing;	3:6 hyper(ἐντολὴν,κύριον);	4:19 repl_co-hypo(εἶναι,ψυχῇ);																														
Mt 22 37a	http://www.biblindex.info/en/biblical/content/ref/GNT_Mt_22_37	27,5 p.172	0:25 unclass:no_rel_found_by_AGWN(ἀγαπήσεις,σου);	1 unclass:lemma_missing;	2:0 lem(τὸν,ὁ); repl_flex(a,n);	3 unclass:lemma_missing;	4:9 NOP(σου,σου); NOPmorph(pg,pg);	5:25 unclass:no_rel_found_by_AGWN(ἐξ,σου);	6:11 lem(ὅλης,ὅλῃ); repl_flex(g,d);	7:7 lem(τῆς,τὸν); repl_flex(g,a);	8:3 hypo(ψυχῆς,αὐτῷ);	9:14 NOP(σου,σου); NOPmorph(pg,pg);	10:15 NOP(καὶ,καὶ); NOPmorph(c,c);	11:25 unclass:no_rel_found_by_AGWN(ἐξ,σου);	12:17 lem(ὅλης,ὅλῃ); repl_flex(g,d);	13:12 lem(τῆς,τῇ); repl_flex(g,d);	14:25 unclass:no_rel_found_by_AGWN(δυνάμεώς,σου);	15:20 NOP(σου,σου); NOPmorph(pg,pg);																			
Mt 23 12	http://www.biblindex.info/en/biblical/content/ref/GNT_Mt_23_12	1,3 p.102	0:9 unclass:no_rel_found_by_AGWN(πρὸς,ὑψωθήσεται);	1:9 unclass:no_rel_found_by_AGWN(τὸ,ὑψωθήσεται);	2:9 unclass:no_rel_found_by_AGWN(ταπεινὸν,ὑψωθήσεται);																																
Mt 22 37c	http://www.biblindex.info/en/biblical/content/ref/GNT_Mt_22_37	27,3 p.172	0:3 NOP(αὐτῷ,αὐτῷ); NOPmorph(pd,pd);	1:1 NOP(δὲ,δὲ); NOPmorph(g,g);	2:0 lem(τῷ,ὁ); repl_flex(d,n);	3:5 lem(ἀγαπᾶν,Ἀγαπήσεις); NOPmorph(v,v);	4:7 NOP(τὸν,τὸν); NOPmorph(la,la);	5 unclass:lemma_missing;	6:25 unclass:no_rel_found_by_AGWN(εἰς,σου);	7 unclass:lemma_missing;	8:25 unclass:no_rel_found_by_AGWN(ἰσχὺν,σου);	9:15 NOP(καὶ,καὶ); NOPmorph(c,c);	10:25 unclass:no_rel_found_by_AGWN(δύναμιν,σου);	11 unclass:lemma_missing;	12 unclass:lemma_missing;																						
Mt 7 11	http://www.biblindex.info/en/biblical/content/ref/GNT_Mt_7_11	39,6 p.202	0:0 NOP(εἰ,εἰ); NOPmorph(c,c);	1:1 repl_co-hypo(δὲ,οὖν);	2:26 repl_syn(ἡμεῖς,αὐτόν);	3:3 NOP(πονηροὶ,πονηροὶ); NOPmorph(an,an);	4:4 NOP(ὄντες,ὄντες); NOPmorph(tn,tn);	5:5 lem(ἴσμεν,οἴδατε); NOPmorph(v,v);	6:7 NOP(ἀγαθὰ,ἀγαθὰ); NOPmorph(aa,aa);	7:24 unclass:no_rel_found_by_AGWN(δόματα,αἰτοῦσιν);	8:24 unclass:no_rel_found_by_AGWN(διδόναι,αἰτοῦσιν);	10 unclass:lemma_missing;	11:14 NOP(μᾶλλον,μᾶλλον); NOPmorph(d,d);	12 unclass:lemma_missing;	13:9 lem(ὁ,τοῖς); repl_flex(n,d);	14:8 repl_co-hypo(πατὴρ,διδόναι);	15:15 lem(τῶν,ὁ); repl_flex(g,n);	16:24 unclass:no_rel_found_by_AGWN(οἰκτιρμῶν,αἰτοῦσιν);	17 unclass:lemma_missing;																		
Mt 7 14	http://www.biblindex.info/en/biblical/content/ref/GNT_Mt_7_14	26,8 p.170	0:18 unclass:no_rel_found_by_AGWN(διὰ,αὐτήν);	1:1 lem(στενῆς,στενὴ); repl_flex(g,n);	2:5 repl_co-hypo(ὁδοῦ,τεθλιμμένη);	3:4 NOP(καὶ,καὶ); NOPmorph(c,c);	4 unclass:lemma_missing;	5 unclass:lemma_missing;	6:2 lem(τὸν,ἡ); repl_flex(a,n);	7 unclass:lemma_missing;																											
Mt 25 41-45	http://www.biblindex.info/en/biblical/content/ref/GNT_Mt_25_41	30,5 p.180	0 unclass:lemma_missing;	1:4 lem(ἐκ,ἐξ); NOPmorph(r,r);	2:3 lem(τῶν,τοῖς); repl_flex(g,d);	3:109 unclass:no_rel_found_by_AGWN(ἐναντίων,ἐποιήσατε);	4:13 lem(τοὺς,τὸ); NOPmorph(la,la);	5:104 lem(ταῦτα,τούτων); repl_flex(a,g);	6:29 repl_syn(μὴ,οὐκ);	7 unclass:lemma_missing;	8:9 repl_syn(αὐτοῖς,ἐμοῦ);	9:12 NOP(εἰς,εἰς); NOPmorph(r,r);	10:15 NOP(τὸ,τὸ); NOPmorph(la,la);	11:14 NOP(πῦρ,πῦρ); NOPmorph(na,na);	12:109 unclass:no_rel_found_by_AGWN(ἐμβάλλει,ἐποιήσατε);	13:17 NOP(τὸ,τὸ); NOPmorph(la,la);	14:109 unclass:no_rel_found_by_AGWN(αἰώνιον,ἐποιήσατε);	16:0 repl_syn(ὡς,Τότε);	17:24 lem(αὐτῷ,αὐτοῦ); repl_flex(d,g);	18:36 repl_syn(μὴ,οὐκ);	19 unclass:lemma_missing;	21:2 NOP(καὶ,καὶ); NOPmorph(c,c);	22:109 unclass:no_rel_found_by_AGWN(ἀλλαχοῦ,ἐποιήσατε);	24 unclass:lemma_missing;	25:19 lem(ὁ,τῷ); repl_pos(p,l); repl_flex(n,d);	26:71 lem(ὑμᾶς,σε); NOPmorph(pa,pa);	27:109 unclass:no_rel_found_by_AGWN(δεχόμενος,ἐποιήσατε);	28:31 lem(ἐμὲ,μοι); repl_flex(a,d);	29:109 unclass:no_rel_found_by_AGWN(δέχεται,ἐποιήσατε);	31:22 lem(ὁ,τοῖς); repl_pos(p,l); repl_flex(n,d);	32:88 lem(ὑμᾶς,σοι); repl_flex(a,d);	33:43 repl_syn(μὴ,οὐ);	34:109 unclass:no_rel_found_by_AGWN(δεχόμενος,ἐποιήσατε);	35:38 lem(ἐμὲ,με); NOPmorph(pa,pa);	36:18 repl_co-hypo(ἀθετεῖ,ἡτοιμασμένον);	38 unclass:lemma_missing;	
Mt 11 12a	http://www.biblindex.info/en/biblical/content/ref/GNT_Mt_11_12	42,19 p.222	0 unclass:lemma_missing;																																		
Mt 26 27-29	http://www.biblindex.info/en/biblical/content/ref/GNT_Mt_26_27	29,4 p.176/178	0:14 lem(οὗτος,τοῦτο); NOPmorph(pn,pn);	1 unclass:lemma_missing;	2:17 lem(τὸν,τὸ); repl_flex(a,n);	3:59 unclass:no_rel_found_by_AGWN(οἶνον,μου);	5:20 lem(τὸ,τῆς); repl_flex(a,g);	6:18 lem(αἷμα,αἷμά); repl_flex(a,n);	7:22 lem(τῆς,τὸ); repl_flex(g,n);	8:44 lem(ἀμπέλου,ἀμπέλου); NOPmorph(ng,ng);	9:41 lem(τῆς,τοῦ); NOPmorph(lg,lg);	10 unclass:lemma_missing;	12 unclass:lemma_missing;	13:6 repl_syn(ἡμῶν,αὐτοῖς);	14:0 repl_syn(ἐπὶ,καὶ);	15:43 lem(τὰς,τῆς); repl_flex(a,g);	16 unclass:lemma_missing;	17 unclass:lemma_missing;																			
Mt 5 29	http://www.biblindex.info/en/biblical/content/ref/GNT_Mt_5_29	24,2 p.162	0 unclass:lemma_missing;	1:12 repl_syn(κἂν,καὶ);	2:2 NOP(ὁ,ὁ); NOPmorph(ln,ln);	3 unclass:lemma_missing;	4:4 NOP(σου,σου); NOPmorph(pg,pg);	5 unclass:lemma_missing;	6 unclass:lemma_missing;	7:8 NOP(σε,σε); NOPmorph(pa,pa);	9 unclass:lemma_missing;	10:10 repl_co-hypo(ἔκκοψον,ἔξελε);	11 unclass:lemma_missing;																								
Mt 18 10a	http://www.biblindex.info/en/biblical/content/ref/GNT_Mt_18_10	31,1 p.180	0 unclass:lemma_missing;	1:1 NOP(μὴ,μὴ); NOPmorph(d,d);	2 unclass:lemma_missing;	3 unclass:lemma_missing;	4 unclass:lemma_missing;	5 unclass:lemma_missing;	6:3 NOP(ἑνὸς,ἑνὸς); repl_pos(p,m); repl_flex(g,a);	7:4 NOP(τῶν,τῶν); NOPmorph(lg,lg);	8:5 NOP(μικρῶν,μικρῶν); NOPmorph(ag,ag);	9 unclass:lemma_missing;	11 unclass:lemma_missing;	12:9 NOP(γὰρ,γὰρ); NOPmorph(g,g);	13:12 NOP(οἱ,οἱ); repl_pos(l,p);	14:13 NOP(ἄγγελοι,ἄγγελοι); NOPmorph(nn,nn);	15:17 NOP(διὰ,διὰ); NOPmorph(r,r);	16:18 NOP(παντὸς,παντὸς); repl_pos(m,p);	17:26 unclass:no_rel_found_by_AGWN(βλέπουσι,οὐρανοῖς);	18:20 NOP(τὸ,τὸ); NOPmorph(la,la);	19 unclass:lemma_missing;	20:22 NOP(τοῦ,τοῦ); NOPmorph(lg,lg);	21 unclass:lemma_missing;	22:14 repl_syn(μου,αὐτῶν);	23:25 NOP(τοῦ,τοῦ); NOPmorph(lg,lg);	24:15 NOP(ἐν,ἐν); NOPmorph(r,r);	25:16 NOP(οὐρανοῖς,οὐρανοῖς); NOPmorph(nd,nd);	27 unclass:lemma_missing;									
Mt 5 25	http://www.biblindex.info/en/biblical/content/ref/GNT_Mt_5_25	40,5 p.204	0:11 repl_syn(πρὸς,ἐν);	1:2 lem(τὸν,τῷ); repl_flex(a,d);	2 unclass:lemma_missing;																																
Mt 5 29a	http://www.biblindex.info/en/biblical/content/ref/GNT_Mt_5_29	24,2 p.162	0:33 unclass:no_rel_found_by_AGWN(αἱρετώτερον,γέενναν);	1 unclass:lemma_missing;	2 unclass:lemma_missing;	3:30 repl_co-hypo(θεοῦ,σῶμά);	4:33 unclass:no_rel_found_by_AGWN(ἢ,γέενναν);	5 unclass:lemma_missing;	6:2 lem(τὸ,ὁ); NOPmorph(ln,ln);	7:1 repl_co-hypo(πῦρ,δὲ);																											
Mt 13 38a	http://www.biblindex.info/en/biblical/content/ref/GNT_Mt_13_38	36,1-2 p.194	0:0 lem(τὸ,ὁ); NOPmorph(ln,ln);	1 unclass:lemma_missing;																																	
Mt 5 39	http://www.biblindex.info/en/biblical/content/ref/GNT_Mt_5_39	18,4 p.146	0 unclass:lemma_missing;	1:21 unclass:no_rel_found_by_AGWN(γοῦν,ἄλλην);	2 unclass:lemma_missing;	3:6 lem(τὸ,τῷ); repl_flex(a,d);	4 unclass:lemma_missing;																														
Mt 5 30	http://www.biblindex.info/en/biblical/content/ref/GNT_Mt_5_30	24,2 p.162	0:0 repl_syn(κἂν,καὶ);	1:5 NOP(χεὶρ,χεὶρ); NOPmorph(nn,nn);																																	
Mt 7 27	http://www.biblindex.info/en/biblical/content/ref/GNT_Mt_7_27	1,3 p.102	0:1 hyper(πτῶσις,κατέβη);																																		
Mt 7 21	http://www.biblindex.info/en/biblical/content/ref/GNT_Mt_7_21	29,6 p.178	0 unclass:lemma_missing;	1:0 upper(οὐ,Οὐ); NOPmorph(d,d);	2:26 unclass:no_rel_found_by_AGWN(γὰρ,οὐρανοῖς);	3:1 NOP(πᾶς,πᾶς); NOPmorph(pn,pn);	4:2 NOP(ὁ,ὁ); repl_pos(l,p);	5 unclass:lemma_missing;	6:4 NOP(μοι,μοι); NOPmorph(pd,pd);	7 unclass:lemma_missing;	8 unclass:lemma_missing;	9:26 unclass:no_rel_found_by_AGWN(εἰσελεύσεται,οὐρανοῖς);	10:10 NOP(εἰς,εἰς); NOPmorph(r,r);	11:11 NOP(τὴν,τὴν); NOPmorph(la,la);	12:26 unclass:no_rel_found_by_AGWN(βασιλείαν,οὐρανοῖς);	13:13 NOP(τῶν,τῶν); NOPmorph(lg,lg);	14:14 NOP(οὐρανῶν,οὐρανῶν); NOPmorph(ng,ng);	16:16 lem(ἀλλ',ἀλλ’); NOPmorph(c,c);	17:17 NOP(ὁ,ὁ); NOPmorph(ln,ln);	18:3 hyper(ποιῶν,λέγων);	19:19 NOP(τὸ,τὸ); NOPmorph(la,la);	20 unclass:lemma_missing;	21:21 NOP(τοῦ,τοῦ); NOPmorph(lg,lg);	22 unclass:lemma_missing;	23:23 NOP(μου,μου); NOPmorph(pg,pg);	25 unclass:lemma_missing;											
Mt 7 7	http://www.biblindex.info/en/biblical/content/ref/GNT_Mt_7_7	4,2 p.110	0:14 unclass:no_rel_found_by_AGWN(ὃ,ὑμῖν);	1:3 repl_co-hypo(δὲ,δοθήσεται);	2 unclass:lemma_missing;	3:14 unclass:no_rel_found_by_AGWN(δεομένοις,ὑμῖν);																															
Mt 10 39	http://www.biblindex.info/en/biblical/content/ref/GNT_Mt_10_39	24,2 p.162	0:8 repl_syn(κἂν,καὶ);	1:16 unclass:no_rel_found_by_AGWN(ποὺς,αὐτήν);	2:16 unclass:no_rel_found_by_AGWN(κἂν,αὐτήν);	3:0 lem(ἡ,ὁ); NOPmorph(ln,ln);	4 unclass:lemma_missing;	6 unclass:lemma_missing;	7 unclass:lemma_missing;	9:16 unclass:no_rel_found_by_AGWN(ἂν,αὐτήν);	10:16 unclass:no_rel_found_by_AGWN(γὰρ,αὐτήν);	11:4 repl_syn(ἐνταῦθα,αὐτοῦ);	12:16 unclass:no_rel_found_by_AGWN(ἀπόληται,αὐτήν);	13:16 unclass:no_rel_found_by_AGWN(ὑπὲρ,αὐτήν);	14:16 unclass:no_rel_found_by_AGWN(Χριστοῦ,αὐτήν);	16:13 repl_syn(ἐκεῖ,αὐτοῦ);	17 unclass:lemma_missing;																				
Mt 8 12	http://www.biblindex.info/en/biblical/content/ref/GNT_Mt_8_12	5,4 p.114/116	0:19 unclass:no_rel_found_by_AGWN(αὐτοῖς,ὀδόντων);	1:0 lem(τοῖς,οἱ); repl_flex(d,n);	2:3 NOP(τῆς,τῆς); NOPmorph(lg,lg);	3:19 unclass:no_rel_found_by_AGWN(βασιλείας,ὀδόντων);	4 unclass:lemma_missing;	5:19 unclass:no_rel_found_by_AGWN(ὑπ',ὀδόντων);	6:12 repl_syn(αὐτοῦ,ἐκεῖ);	7:19 unclass:no_rel_found_by_AGWN(καλουμένοις,ὀδόντων);																											
Mt 6 20	http://www.biblindex.info/en/biblical/content/ref/GNT_Mt_6_20	13,3 p.134	0 unclass:lemma_missing;	1:0 repl_syn(θησαυροὺς,θησαυρίζετε);	2:4 NOP(ἐν,ἐν); NOPmorph(r,r);	3:5 NOP(οὐρανῷ,οὐρανῷ); NOPmorph(nd,nd);																															
Mt 6 21	http://www.biblindex.info/en/biblical/content/ref/GNT_Mt_6_21	17,1 p.142	0 unclass:lemma_missing;	1:11 unclass:no_rel_found_by_AGWN(ἐπάναγκες,σου);	2:11 unclass:no_rel_found_by_AGWN(οἷς,σου);	3:11 unclass:no_rel_found_by_AGWN(εἵλετο,σου);	5 unclass:lemma_missing;	6:0 NOP(ὅπου,ὅπου); NOPmorph(d,d);	7:1 lem(γὰρ,γάρ); NOPmorph(g,g);	8:3 NOP(ὁ,ὁ); NOPmorph(ln,ln);	9:11 unclass:no_rel_found_by_AGWN(νοῦς,σου);	10:10 lem(τοῦ,ἡ); repl_flex(g,n);	11:11 unclass:no_rel_found_by_AGWN(ἀνθρώπου,σου);	13:7 NOP(ἐκεῖ,ἐκεῖ); NOPmorph(d,d);	14:9 NOP(καὶ,καὶ); NOPmorph(c,c);	15:11 unclass:no_rel_found_by_AGWN(ὁ,σου);	16:4 lem(θησαυρὸς,θησαυρός); NOPmorph(nn,nn);	17:11 unclass:no_rel_found_by_AGWN(αὐτοῦ,σου);	19 unclass:lemma_missing;																		
Mt 10 22	http://www.biblindex.info/en/biblical/content/ref/GNT_Mt_10_22	32,6 p.186	0:6 lem(ὁ,τὸ); repl_pos(p,l); repl_flex(n,a);	1 unclass:lemma_missing;	2:13 NOP(εἰς,εἰς); NOPmorph(r,r);	3 unclass:lemma_missing;	5:15 NOP(οὗτος,οὗτος); NOPmorph(pn,pn);	6 unclass:lemma_missing;																													
Mt 3 10	http://www.biblindex.info/en/biblical/content/ref/GNT_Mt_3_10	29,3 p.176	0 unclass:lemma_missing;	1:1 NOP(δὲ,δὲ); NOPmorph(g,g);	2:2 lem(τῶν,ἡ); repl_flex(g,n);	3 unclass:lemma_missing;	4 unclass:lemma_missing;	5:21 unclass:no_rel_found_by_AGWN(ἰατρὸς,βάλλεται);	6 unclass:lemma_missing;	8:21 unclass:no_rel_found_by_AGWN(ἐκκόπτων,βάλλεται);	9:21 repl_co-hypo(ἄρδην,πῦρ);	10:5 lem(τὰ,τὴν); NOPmorph(la,la);	11 unclass:lemma_missing;	12 unclass:lemma_missing;	14:12 repl_syn(οὐχ,οὖν);	15:20 unclass:no_rel_found_by_AGWN(ὥσπερ,βάλλεται);	16:7 lem(ὁ,τῶν); repl_flex(n,g);	17 unclass:lemma_missing;	18 unclass:lemma_missing;	19:20 unclass:no_rel_found_by_AGWN(τὰ,βάλλεται);	20 unclass:lemma_missing;	22:20 unclass:no_rel_found_by_AGWN(τοὺς,βάλλεται);	23:16 lem(καρποὺς,καρπὸν); NOPmorph(na,na);	24:20 unclass:no_rel_found_by_AGWN(τῶν,βάλλεται);	25:20 unclass:no_rel_found_by_AGWN(πονηρῶν,βάλλεται);	26 unclass:lemma_missing;	28:19 repl_syn(ἀλλὰ,καὶ);	29:20 unclass:no_rel_found_by_AGWN(τὴν,βάλλεται);	30:20 unclass:no_rel_found_by_AGWN(ἀξίνην,βάλλεται);	31:20 unclass:no_rel_found_by_AGWN(τὴν,βάλλεται);	32:20 unclass:no_rel_found_by_AGWN(ἑαυτοῦ,βάλλεται);	33:4 NOP(πρὸς,πρὸς); NOPmorph(r,r);	34:20 unclass:no_rel_found_by_AGWN(τὰς,βάλλεται);	35 unclass:lemma_missing;	36:20 unclass:no_rel_found_by_AGWN(τῆς,βάλλεται);	37:20 unclass:no_rel_found_by_AGWN(κακίας,βάλλεται);	38 unclass:lemma_missing;
Mt 5 13	http://www.biblindex.info/en/biblical/content/ref/GNT_Mt_5_13	36,1-2 p.194	0:3 NOP(ἅλας,ἅλας); repl_flex(a,n);	1:2 lem(τῆς,τὸ); repl_flex(g,n);	2:5 NOP(γῆς,γῆς); NOPmorph(ng,ng);																																
Mt 5 14	http://www.biblindex.info/en/biblical/content/ref/GNT_Mt_5_14	36,1-2 p.194	0:3 NOP(ϕῶς,ϕῶς); repl_flex(a,n);	1:2 lem(τοῦ,τὸ); repl_flex(g,n);	2 unclass:lemma_missing;																																
Mt 8 22	http://www.biblindex.info/en/biblical/content/ref/GNT_Mt_8_22	23,2 p.160	0:4 repl_syn(σὺ,αὐτῷ);	1 unclass:lemma_missing;	2:7 NOP(μοι,μοι); NOPmorph(pd,pd);	3 unclass:lemma_missing;																															
Mt 12 34-35	http://www.biblindex.info/en/biblical/content/ref/GNT_Mt_12_34	17,2 p.144	0 unclass:lemma_missing;	1:12 lem(ὁ,τοῦ); repl_flex(n,g);	2 unclass:lemma_missing;	3:11 NOP(γὰρ,γὰρ); NOPmorph(g,g);	4 unclass:lemma_missing;	5:5 lem(ἀγαθὸς,ἀγαθὰ); repl_pos(a,n); repl_flex(n,a);	6:0 repl_co-hypo(ἄνθρωπος,γεννήματα);	7:10 NOP(ἐκ,ἐκ); NOPmorph(r,r);	8:14 lem(τοῦ,τῆς); NOPmorph(lg,lg);	9:21 lem(ἀγαθοῦ,ἀγαθὸς); repl_flex(g,n);	10:26 NOP(θησαυροῦ,θησαυροῦ); NOPmorph(ng,ng);	11:16 lem(τῆς,τὸ); repl_flex(g,n);	12:38 unclass:no_rel_found_by_AGWN(καρδίας,πονηρά);	13 unclass:lemma_missing;	14:20 lem(τὸ,ὁ); repl_flex(a,n);	15 unclass:lemma_missing;	16 unclass:lemma_missing;																		
Mk 10 27a	http://www.biblindex.info/en/biblical/content/ref/GNT_Mk_10_27	21,1 p.154	0 unclass:lemma_missing;	1:9 repl_syn(δὲ,ἀλλ’);	2 unclass:lemma_missing;	3:18 unclass:no_rel_found_by_AGWN(ἀποκρίνεται,θεῷ);	4:18 unclass:no_rel_found_by_AGWN(διότι,θεῷ);	5 unclass:lemma_missing;	6:2 lem(τὸ,ὁ); NOPmorph(ln,ln);	7:18 unclass:no_rel_found_by_AGWN(ἐν,θεῷ);	8:1 repl_co-hypo(ἀνθρώποις,αὐτοῖς);	9 unclass:lemma_missing;	10:16 lem(δυνατὸν,δυνατὰ); NOPmorph(an,an);	11:12 NOP(θεῷ,θεῷ); NOPmorph(nd,nd);	12 unclass:lemma_missing;																						
Mk 10 17	http://www.biblindex.info/en/biblical/content/ref/GNT_Mk_10_17	6,4 p.118	0:17 repl_co-hypo(κληθεὶς,ποιήσω);	1:4 repl_co-hypo(δὲ,ὁδὸν);	2 unclass:lemma_missing;																																
Mk 10 18	http://www.biblindex.info/en/biblical/content/ref/GNT_Mk_10_18	1,1 p.100	0:16 unclass:no_rel_found_by_AGWN(καὶ,θεός);	1:9 lem(ἀγαθὸν,ἀγαθόν); NOPmorph(aa,aa);																																	
Mk 10 25a	http://www.biblindex.info/en/biblical/content/ref/GNT_Mk_10_25	2,2 p.104	0 unclass:lemma_missing;	1:10 lem(τοὺς,τὴν); NOPmorph(la,la);	2 unclass:lemma_missing;																																
Mk 10 22	http://www.biblindex.info/en/biblical/content/ref/GNT_Mk_10_22	20,1 p.150	0:6 lem(ἀπῆλθε,ἀπῆλθεν); NOPmorph(v,v);	1:12 unclass:no_rel_found_by_AGWN(στυγνὸς,πολλά);																																	
Mk 10 21	http://www.biblindex.info/en/biblical/content/ref/GNT_Mk_10_21	14,5 p.138	0:0 lem(τὸ,ὁ); NOPmorph(ln,ln);	1:1 repl_co-hypo(οὖν,δὲ);	2:32 unclass:no_rel_found_by_AGWN(ἀποτάξασθαι,μοι);	3:32 unclass:no_rel_found_by_AGWN(πᾶσι,μοι);	4:21 NOP(τοῖς,τοῖς); NOPmorph(ld,ld);	5 unclass:lemma_missing;	6:7 NOP(καὶ,καὶ); NOPmorph(c,c);	7:17 repl_co-hypo(πωλῆσαι,ἔχεις);	8 unclass:lemma_missing;	9:32 unclass:no_rel_found_by_AGWN(τὰ,μοι);	10 unclass:lemma_missing;																								
Mk 10 25b	http://www.biblindex.info/en/biblical/content/ref/GNT_Mk_10_25	26,7 p.170	0:13 unclass:no_rel_found_by_AGWN(εἰ,εἰσελθεῖν);	1:13 unclass:no_rel_found_by_AGWN(δὲ,εἰσελθεῖν);	2 unclass:lemma_missing;	4:13 unclass:no_rel_found_by_AGWN(θᾶττον,εἰσελθεῖν);	5:13 unclass:no_rel_found_by_AGWN(κάμηλος,εἰσελθεῖν);	6:3 NOP(διὰ,διὰ); NOPmorph(r,r);	7:13 unclass:no_rel_found_by_AGWN(βελόνης,εἰσελθεῖν);	8:14 lem(εἰσελεύσεται,εἰσελθεῖν); NOPmorph(v,v);	9:7 NOP(ἢ,ἢ); NOPmorph(g,g);	10:10 lem(ὁ,τὴν); repl_flex(n,a);	11:12 unclass:no_rel_found_by_AGWN(τοιοῦτος,θεοῦ);	12 unclass:lemma_missing;	13:12 unclass:no_rel_found_by_AGWN(ἐπὶ,θεοῦ);	14:12 lem(τὴν,τοῦ); repl_flex(a,g);	15:11 unclass:no_rel_found_by_AGWN(βασιλείαν,θεοῦ);	16:11 unclass:no_rel_found_by_AGWN(τοῦ,θεοῦ);	17:13 NOP(θεοῦ,θεοῦ); NOPmorph(ng,ng);	18 unclass:lemma_missing;																	
Mk 10 11	http://www.biblindex.info/en/biblical/content/ref/GNT_Mk_10_11	42,19 p.222	0:7 lem(ὁ,τὴν); repl_flex(n,a);	1:14 repl_syn(ἐν,ἐπ’);	2:13 unclass:no_rel_found_by_AGWN(τοῖς,αὐτήν);	3:13 unclass:no_rel_found_by_AGWN(οὐρανοῖς,αὐτήν);																															
Mk 13 13	http://www.biblindex.info/en/biblical/content/ref/GNT_Mk_13_13	32,6 p.186	0:6 lem(ὁ,τὸ); repl_pos(p,l); repl_flex(n,a);	1 unclass:lemma_missing;	2:13 NOP(εἰς,εἰς); NOPmorph(r,r);	3 unclass:lemma_missing;	5:15 NOP(οὗτος,οὗτος); NOPmorph(pn,pn);	6 unclass:lemma_missing;																													
Mk 10 21b	http://www.biblindex.info/en/biblical/content/ref/GNT_Mk_10_21	19,6 p.150	0:7 repl_co-hypo(πωλεῖς,καὶ);	1:0 lem(τὰ,ὁ); repl_flex(a,n);	2 unclass:lemma_missing;	3:21 lem(οἱ,τοῖς); repl_flex(n,d);	4:22 lem(πτωχοὶ,πτωχοῖς); repl_flex(n,d);	5:1 repl_co-hypo(ἔχοις,δὲ);	6:32 unclass:no_rel_found_by_AGWN(ἂν,μοι);	7:5 repl_co-hypo(θησαυρὸν,ἠγάπησεν);	8:27 NOP(ἐν,ἐν); NOPmorph(r,r);	9:28 lem(οὐρανοῖς,οὐρανῷ); NOPmorph(nd,nd);																									
Mk 10 29-30	http://www.biblindex.info/en/biblical/content/ref/GNT_Mk_10_29	22,1 p.156	0 unclass:lemma_missing;	1:12 repl_co-hypo(δὲ,οἰκίαν);	2 unclass:lemma_missing;	4:4 upper(ἀμὴν,Ἀμὴν); NOPmorph(g,g);	5:6 NOP(ὑμῖν,ὑμῖν); NOPmorph(pd,pd);	6 unclass:lemma_missing;	8:10 NOP(ὃς,ὃς); NOPmorph(pn,pn);	9:61 unclass:no_rel_found_by_AGWN(ἂν,αἰώνιον);	10 unclass:lemma_missing;	11:1 lem(τὰ,ὁ); repl_flex(a,n);	12:61 unclass:no_rel_found_by_AGWN(ἴδια,αἰώνιον);	13:27 NOP(καὶ,καὶ); NOPmorph(c,c);	14:18 repl_syn(γονεῖς,μητέρα);	15:38 repl_syn(καὶ,τῷ);	16 unclass:lemma_missing;	17:42 NOP(καὶ,καὶ); NOPmorph(c,c);	18 unclass:lemma_missing;	19:25 NOP(ἕνεκεν,ἕνεκεν); NOPmorph(r,r);	20:26 NOP(ἐμοῦ,ἐμοῦ); NOPmorph(pg,pg);	21:44 NOP(καὶ,καὶ); NOPmorph(c,c);	22:28 NOP(ἕνεκεν,ἕνεκεν); NOPmorph(r,r);	23:29 NOP(τοῦ,τοῦ); NOPmorph(lg,lg);	24:61 unclass:no_rel_found_by_AGWN(εὐαγγελίου,αἰώνιον);	26:61 unclass:no_rel_found_by_AGWN(ἀπολήψεται,αἰώνιον);	27:61 unclass:no_rel_found_by_AGWN(ἑκατονταπλασίονα,αἰώνιον);										
Mk 10 21a	http://www.biblindex.info/en/biblical/content/ref/GNT_Mk_10_21	16,1 p.140	0 unclass:lemma_missing;	1:7 NOP(καὶ,καὶ); NOPmorph(c,c);	2:32 unclass:no_rel_found_by_AGWN(γυμνήν,μοι);	4:0 lem(τὴν,ὁ); repl_flex(a,n);	5:4 hypo(ψυχὴν,αὐτῷ);	6 unclass:lemma_missing;	7:19 repl_syn(οὕτως,καὶ);	8:32 unclass:no_rel_found_by_AGWN(ἤδη,μοι);	9:21 lem(τοῦ,τοῖς); repl_flex(a,d);	10:6 repl_co-hypo(σωτῆρος,αὐτὸν);	11:8 repl_syn(ἀκοῦσαι,εἶπεν);	12 unclass:lemma_missing;	14 unclass:lemma_missing;	15:31 NOP(δεῦρο,δεῦρο); NOPmorph(d,d);	16 unclass:lemma_missing;	17:9 repl_syn(μοι,αὐτῷ);	19 unclass:lemma_missing;																		
Mk 8 35	http://www.biblindex.info/en/biblical/content/ref/GNT_Mk_8_35	24,2 p.162	0:23 unclass:no_rel_found_by_AGWN(κἂν,αὐτήν);	1:23 unclass:no_rel_found_by_AGWN(ποὺς,αὐτήν);	2:23 unclass:no_rel_found_by_AGWN(κἂν,αὐτήν);	3:4 lem(ἡ,τὴν); repl_flex(n,a);	4 unclass:lemma_missing;	6 unclass:lemma_missing;	7 unclass:lemma_missing;	9:13 NOP(ἂν,ἂν); repl_pos(g,c);	10:1 NOP(γὰρ,γὰρ); NOPmorph(g,g);	11:6 repl_syn(ἐνταῦθα,αὐτοῦ);	12:23 unclass:no_rel_found_by_AGWN(ἀπόληται,αὐτήν);	13:23 unclass:no_rel_found_by_AGWN(ὑπὲρ,αὐτήν);	14:23 unclass:no_rel_found_by_AGWN(Χριστοῦ,αὐτήν);	16:17 repl_syn(ἐκεῖ,αὐτοῦ);	17 unclass:lemma_missing;																				
Mk 10 18a	http://www.biblindex.info/en/biblical/content/ref/GNT_Mk_10_18	6,4 p.118	0:16 unclass:no_rel_found_by_AGWN(ἐπὶ,θεός);	1:0 lem(τὸν,ὁ); repl_flex(a,n);	2:17 lem(θεὸν,θεός); repl_flex(a,n);	3:16 lem(τὸν,ὁ); repl_flex(a,n);	4:9 lem(ἀγαθὸν,ἀγαθόν); NOPmorph(aa,aa);																														
Mk 10 18b	http://www.biblindex.info/en/biblical/content/ref/GNT_Mk_10_18	23,2 p.160	0:24 unclass:no_rel_found_by_AGWN(ἐγώ,μοι);	1:1 NOP(σοι,σοι); NOPmorph(pd,pd);	2:2 NOP(δείξω,δείξω); NOPmorph(v,v);	3:3 NOP(θεοῦ,θεοῦ); NOPmorph(ng,ng);	4:4 NOP(πατρὸς,πατρὸς); NOPmorph(ng,ng);	5:5 NOP(ἀγαθοῦ,ἀγαθοῦ); NOPmorph(ag,ag);	6 unclass:lemma_missing;																												
Mk 9 43-47	http://www.biblindex.info/en/biblical/content/ref/GNT_Mk_9_43	24,2 p.162	0:0 repl_syn(κἂν,Καὶ);	1:23 repl_co-hypo(ποὺς,ἔχοντα);	2:35 repl_syn(κἂν,καὶ);	3:4 NOP(ἡ,ἡ); NOPmorph(ln,ln);	4 unclass:lemma_missing;	6 unclass:lemma_missing;	7 unclass:lemma_missing;	9:91 unclass:no_rel_found_by_AGWN(ἂν,γέενναν);	10:91 unclass:no_rel_found_by_AGWN(γὰρ,γέενναν);	11:91 unclass:no_rel_found_by_AGWN(ἐνταῦθα,γέενναν);	12:91 unclass:no_rel_found_by_AGWN(ἀπόληται,γέενναν);	13:91 unclass:no_rel_found_by_AGWN(ὑπὲρ,γέενναν);	14:91 unclass:no_rel_found_by_AGWN(Χριστοῦ,γέενναν);	16 unclass:lemma_missing;	17 unclass:lemma_missing;																				
Mk 12 30-31a	http://www.biblindex.info/en/biblical/content/ref/GNT_Mk_12_30	30,1 p.178	0 unclass:lemma_missing;	1:37 repl_syn(μὲν,ὡς);	2:0 repl_syn(οὖν,καὶ);	3 unclass:lemma_missing;	4:35 hypo(ἐστιν,πλησίον);	5:3 lem(ὁ,τὸν); repl_pos(p,l); repl_flex(n,a);	6:44 unclass:no_rel_found_by_AGWN(Χριστὸν,ἔστιν);	7:1 lem(ἀγαπῶν,ἀγαπήσεις); repl_flex(n,'');	9:44 unclass:no_rel_found_by_AGWN(δεύτερος,ἔστιν);	10:30 repl_co-hypo(δὲ,δευτέρα);	11:8 lem(ὁ,τῆς); repl_pos(p,l); repl_flex(n,g);	12:14 lem(τοὺς,τῆς); repl_pos(p,l); repl_flex(a,g);	13:44 unclass:no_rel_found_by_AGWN(ἐκείνῳ,ἔστιν);	14 unclass:lemma_missing;	15:33 hyper(τιμῶν,Ἀγαπήσεις);	16:11 NOP(καὶ,καὶ); NOPmorph(c,c);	17 unclass:lemma_missing;																		
Mk 14 23-25	http://www.biblindex.info/en/biblical/content/ref/GNT_Mk_14_23	29,4 p.176/178	0:17 lem(οὗτος,Τοῦτό); NOPmorph(pn,pn);	1 unclass:lemma_missing;	2:19 lem(τὸν,τὸ); repl_flex(a,n);	3:52 unclass:no_rel_found_by_AGWN(οἶνον,θεοῦ);	5:22 lem(τὸ,τῆς); repl_flex(a,g);	6:20 lem(αἷμα,αἷμά); repl_flex(a,n);	7:24 lem(τῆς,τὸ); repl_flex(g,n);	8:41 lem(ἀμπέλου,ἀμπέλου); NOPmorph(ng,ng);	9:38 lem(τῆς,τοῦ); NOPmorph(lg,lg);	10 unclass:lemma_missing;	12 unclass:lemma_missing;	13:5 repl_syn(ἡμῶν,αὐτοῖς);	14:0 repl_syn(ἐπὶ,καὶ);	15:40 lem(τὰς,τῆς); repl_flex(a,g);	16 unclass:lemma_missing;	17 unclass:lemma_missing;																			
Mk 10 30a	http://www.biblindex.info/en/biblical/content/ref/GNT_Mk_10_30	25,8 p.166	0 unclass:lemma_missing;	1:5 NOP(ἐν,ἐν); NOPmorph(r,r);	2:6 repl_co-hypo(δὲ,τῷ);	3:10 repl_syn(τῷ,καὶ);	4:2 hypo(ἐρχομένῳ,λάβῃ);	5 unclass:lemma_missing;	6:28 hypo(ἐστιν,ἐρχομένῳ);	7:29 unclass:no_rel_found_by_AGWN(αἰώνιος,αἰώνιον);	9 unclass:lemma_missing;																										
Mk 12 30a	http://www.biblindex.info/en/biblical/content/ref/GNT_Mk_12_30	27,5 p.147	0:15 hyper(αὐτῷ,ψυχῆς);	1:27 unclass:no_rel_found_by_AGWN(δὲ,σου);	2:0 repl_syn(τῷ,καὶ);	3:1 lem(ἀγαπᾶν,ἀγαπήσεις); NOPmorph(v,v);	4:3 NOP(τὸν,τὸν); NOPmorph(la,la);	5 unclass:lemma_missing;	6:27 unclass:no_rel_found_by_AGWN(εἰς,σου);	7 unclass:lemma_missing;	8:27 lem(ἰσχὺν,ἰσχύος); repl_flex(a,g);	9:11 NOP(καὶ,καὶ); NOPmorph(c,c);	10:26 unclass:no_rel_found_by_AGWN(δύναμιν,σου);	11 unclass:lemma_missing;	12 unclass:lemma_missing;																						
Mk 2 7	http://www.biblindex.info/en/biblical/content/ref/GNT_Mk_2_7	39,5 p.202	0:15 lem(θεῷ,θεός); repl_flex(d,n);	1:13 unclass:no_rel_found_by_AGWN(γὰρ,ὁ);	2 unclass:lemma_missing;	3:8 repl_syn(δυνατὸν,δύναται);	4 unclass:lemma_missing;	5:9 repl_co-hypo(ἁμαρτιῶν,ἀφιέναι);	6 unclass:lemma_missing;																												
Mk 12 30	http://www.biblindex.info/en/biblical/content/ref/GNT_Mk_12_30	27,3 p.172	0:27 unclass:no_rel_found_by_AGWN(ἀγαπήσεις,σου);	1 unclass:lemma_missing;	2:3 NOP(τὸν,τὸν); NOPmorph(la,la);	3 unclass:lemma_missing;	4:5 NOP(σου,σου); NOPmorph(pg,pg);	5:6 NOP(ἐξ,ἐξ); NOPmorph(r,r);	6:7 NOP(ὅλης,ὅλης); NOPmorph(ag,ag);	7:8 NOP(τῆς,τῆς); NOPmorph(lg,lg);	8:9 repl_syn(ψυχῆς,καρδίας);	9:10 NOP(σου,σου); NOPmorph(pg,pg);	10:0 NOP(καὶ,καὶ); NOPmorph(c,c);	11:12 NOP(ἐξ,ἐξ); NOPmorph(r,r);	12:13 NOP(ὅλης,ὅλης); NOPmorph(ag,ag);	13:14 NOP(τῆς,τῆς); NOPmorph(lg,lg);	14:27 unclass:no_rel_found_by_AGWN(δυνάμεώς,σου);	15:16 NOP(σου,σου); NOPmorph(pg,pg);																			
Mk 12 31	http://www.biblindex.info/en/biblical/content/ref/GNT_Mk_12_31	28,1 p.174	0 unclass:lemma_missing;	1:0 repl_co-hypo(δὲ,δευτέρα);	2 unclass:lemma_missing;	3:5 repl_co-hypo(καὶ,πλησίον);	4 unclass:lemma_missing;	5:14 unclass:no_rel_found_by_AGWN(τι,ἔστιν);	6 unclass:lemma_missing;	7 unclass:lemma_missing;	8:15 lem(εἶναι,ἔστιν); NOPmorph(h,h);	9 unclass:lemma_missing;	10 unclass:lemma_missing;	12 unclass:lemma_missing;	13:13 unclass:no_rel_found_by_AGWN(ἀγαπήσεις,οὐκ);	14:4 NOP(τὸν,τὸν); NOPmorph(la,la);	15 unclass:lemma_missing;	16:6 NOP(σου,σου); NOPmorph(pg,pg);	17:7 NOP(ὡς,ὡς); NOPmorph(d,d);	18 unclass:lemma_missing;	20 unclass:lemma_missing;																
Mk 12 29	http://www.biblindex.info/en/biblical/content/ref/GNT_Mk_12_29	27,3 p.172	0:16 unclass:no_rel_found_by_AGWN(περὶ,ἐστιν);	1:1 lem(τοῦ,ὁ); repl_flex(g,n);	2 unclass:lemma_missing;	3:16 unclass:no_rel_found_by_AGWN(καὶ,ἐστιν);	4:16 unclass:no_rel_found_by_AGWN(περὶ,ἐστιν);	5:12 lem(τοῦ,ὁ); repl_flex(g,n);	6 unclass:lemma_missing;																												
Mk 10 30	http://www.biblindex.info/en/biblical/content/ref/GNT_Mk_10_30	25,1 p.162	0 unclass:lemma_missing;	1:4 NOP(νῦν,νῦν); NOPmorph(d,d);	2:6 repl_co-hypo(δὲ,τῷ);	3:5 NOP(ἐν,ἐν); NOPmorph(r,r);	4:10 repl_syn(τῷ,καὶ);	5:7 NOP(καιρῷ,καιρῷ); NOPmorph(nd,nd);	6 unclass:lemma_missing;	7:2 hyper(ἀγροὺς,λάβῃ);	8:12 NOP(καὶ,καὶ); NOPmorph(c,c);	9 unclass:lemma_missing;	10:14 NOP(καὶ,καὶ); NOPmorph(c,c);	11 unclass:lemma_missing;	12:16 NOP(καὶ,καὶ); NOPmorph(c,c);	13 unclass:lemma_missing;	14:9 hypo(ἔχειν,οἰκίας);	15:20 NOP(μετὰ,μετὰ); NOPmorph(r,r);	16:21 NOP(διωγμῶν,διωγμῶν); NOPmorph(ng,ng);	17:29 unclass:no_rel_found_by_AGWN(εἰς,αἰώνιον);	18:29 unclass:no_rel_found_by_AGWN(ποῦ,αἰώνιον);	20 unclass:lemma_missing;															
Mk 10 31	http://www.biblindex.info/en/biblical/content/ref/GNT_Mk_10_31	26,1 p.166	0 unclass:lemma_missing;	1 unclass:lemma_missing;	2:7 unclass:no_rel_found_by_AGWN(οἱ,πρῶτοι);	3:1 repl_syn(πρῶτοι,δὲ);	4:4 NOP(ἔσχατοι,ἔσχατοι); NOPmorph(an,an);	5:5 NOP(καὶ,καὶ); NOPmorph(c,c);	6:7 unclass:no_rel_found_by_AGWN(οἱ,πρῶτοι);	7:7 NOP(ἔσχατοι,ἔσχατοι); NOPmorph(an,an);	8:3 NOP(πρῶτοι,πρῶτοι); NOPmorph(an,an);	10 unclass:lemma_missing;																									
Mk 12 30-31	http://www.biblindex.info/en/biblical/content/ref/GNT_Mk_12_30	29,1 p.176	0 unclass:lemma_missing;	1 unclass:lemma_missing;	2:37 repl_syn(μὲν,ὡς);	3:0 repl_syn(οὖν,καὶ);	4:3 lem(ταῖς,τὸν); repl_flex(d,a);	5:2 hyper(ἐντολαῖς,κύριον);	6:44 unclass:no_rel_found_by_AGWN(ἀγάπην,ἔστιν);	7:44 unclass:no_rel_found_by_AGWN(εἰσηγεῖται,ἔστιν);	9 unclass:lemma_missing;	10:30 repl_co-hypo(δ',δευτέρα);	11:15 hyper(αὐτὴν,ψυχῆς);	12:44 unclass:no_rel_found_by_AGWN(διῄρηκε,ἔστιν);	14:11 NOP(καὶ,καὶ); NOPmorph(c,c);	15:44 unclass:no_rel_found_by_AGWN(ὅπου,ἔστιν);	16:44 repl_syn(μὲν,οὐκ);	17:8 lem(τὰ,τῆς); repl_flex(a,g);	18:43 unclass:no_rel_found_by_AGWN(πρωτεῖα,ἔστιν);	19:14 NOP(τῆς,τῆς); NOPmorph(lg,lg);	20:43 unclass:no_rel_found_by_AGWN(ἀγάπης,ἔστιν);	21:43 unclass:no_rel_found_by_AGWN(ἀνάπτει,ἔστιν);	22:17 repl_syn(τῷ,καὶ);	23:4 lem(θεῷ,θεόν); repl_flex(d,a);	25:43 unclass:no_rel_found_by_AGWN(ὅπου,ἔστιν);	26:43 unclass:no_rel_found_by_AGWN(δὲ,ἔστιν);	27:20 lem(τὰ,τῆς); repl_flex(a,g);	28:43 unclass:no_rel_found_by_AGWN(δευτερεῖα,ἔστιν);	29 unclass:lemma_missing;	30:23 repl_syn(τῷ,καὶ);	31 unclass:lemma_missing;						
Mk 10 27	http://www.biblindex.info/en/biblical/content/ref/GNT_Mk_10_27	2,2 p.104	0:2 lem(τὸ,ὁ); repl_flex('',n);	1 unclass:lemma_missing;	2:18 unclass:no_rel_found_by_AGWN(ἐν,θεῷ);	3:1 repl_co-hypo(ἀνθρώποις,αὐτοῖς);	4:16 lem(δυνατὸν,δυνατὰ); NOPmorph(an,an);																														
Mk 10 24	http://www.biblindex.info/en/biblical/content/ref/GNT_Mk_10_24	31,1 p.180	0 unclass:lemma_missing;																																		
Mk 10 23	http://www.biblindex.info/en/biblical/content/ref/GNT_Mk_10_23	18,1 p.144	0 unclass:lemma_missing;	1:2 lem(τοὺς,ὁ); repl_flex(a,n);	2 unclass:lemma_missing;	3:19 unclass:no_rel_found_by_AGWN(μαθηματικῶς,εἰσελεύσονται);	4 unclass:lemma_missing;	6:5 lem(τοὺς,τοῖς); repl_flex(a,d);	7:19 unclass:no_rel_found_by_AGWN(δυσκόλως,εἰσελεύσονται);																												
Mk 10 26	http://www.biblindex.info/en/biblical/content/ref/GNT_Mk_10_26	20,4 p.152	0 unclass:lemma_missing;	1:1 repl_co-hypo(οὖν,δὲ);	2 unclass:lemma_missing;	3 unclass:lemma_missing;	5 unclass:lemma_missing;	6 unclass:lemma_missing;	7 unclass:lemma_missing;	8:11 NOP(σωθῆναι,σωθῆναι); NOPmorph(v,v);	10 unclass:lemma_missing;																										
Mk 10 25	http://www.biblindex.info/en/biblical/content/ref/GNT_Mk_10_25	2,2 p.104	0:13 unclass:no_rel_found_by_AGWN(ῥᾷον,εἰσελθεῖν);	1:13 unclass:no_rel_found_by_AGWN(κάμηλος,εἰσελθεῖν);	2:3 NOP(διὰ,διὰ); NOPmorph(r,r);	3 unclass:lemma_missing;	4 unclass:lemma_missing;	5 unclass:lemma_missing;	6:7 NOP(ἢ,ἢ); NOPmorph(g,g);	7 unclass:lemma_missing;	8:9 NOP(εἰς,εἰς); NOPmorph(r,r);	9:10 NOP(τὴν,τὴν); NOPmorph(la,la);	10:13 unclass:no_rel_found_by_AGWN(βασιλείαν,εἰσελθεῖν);	11:12 lem(τῶν,τοῦ); NOPmorph(lg,lg);	12:13 unclass:no_rel_found_by_AGWN(οὐρανῶν,εἰσελθεῖν);																						
Mk 10 45	http://www.biblindex.info/en/biblical/content/ref/GNT_Mk_10_45	37,4 p.194/196	0:0 NOP(καὶ,καὶ); NOPmorph(c,c);	1 unclass:lemma_missing;	2:17 unclass:no_rel_found_by_AGWN(ἑαυτὸν,πολλῶν);	3:17 unclass:no_rel_found_by_AGWN(ἐπιδιδοὺς,πολλῶν);																															
Lk 10 27b	http://www.biblindex.info/en/biblical/content/ref/GNT_Lk_10_27	28,1 p.174	0 unclass:lemma_missing;	1:1 NOP(δὲ,δὲ); NOPmorph(g,g);	2 unclass:lemma_missing;	3:15 NOP(καὶ,καὶ); NOPmorph(c,c);	4 unclass:lemma_missing;	5:38 unclass:no_rel_found_by_AGWN(τι,σεαυτόν);	6 unclass:lemma_missing;	7 unclass:lemma_missing;	8:19 repl_co-hypo(εἶναι,ψυχῇ);	9 unclass:lemma_missing;	10 unclass:lemma_missing;	12 unclass:lemma_missing;	13:38 unclass:no_rel_found_by_AGWN(ἀγαπήσεις,σεαυτόν);	14:0 lem(τὸν,ὁ); repl_flex(a,n);	15 unclass:lemma_missing;	16:9 NOP(σου,σου); NOPmorph(pg,pg);	17:21 repl_syn(ὡς,καὶ);	18 unclass:lemma_missing;	20 unclass:lemma_missing;																
Lk 10 27a	http://www.biblindex.info/en/biblical/content/ref/GNT_Lk_10_27	27,5 p.147	0:19 hyper(αὐτῷ,ψυχῇ);	1:1 NOP(δὲ,δὲ); NOPmorph(g,g);	2:0 lem(τῷ,ὁ); repl_flex(d,n);	3:5 lem(ἀγαπᾶν,Ἀγαπήσεις); NOPmorph(v,v);	4:7 NOP(τὸν,τὸν); NOPmorph(la,la);	5 unclass:lemma_missing;	6:38 unclass:no_rel_found_by_AGWN(εἰς,σεαυτόν);	7 unclass:lemma_missing;	8:25 lem(ἰσχὺν,ἰσχύϊ); repl_flex(a,d);	9:15 NOP(καὶ,καὶ); NOPmorph(c,c);	10:38 unclass:no_rel_found_by_AGWN(δύναμιν,σεαυτόν);	11 unclass:lemma_missing;	12 unclass:lemma_missing;																						
Lk 10 27d	http://www.biblindex.info/en/biblical/content/ref/GNT_Lk_10_27	30,1 p.178	0 unclass:lemma_missing;	1:38 repl_syn(μὲν,ὡς);	2:1 repl_co-hypo(οὖν,δὲ);	3 unclass:lemma_missing;	4:19 repl_co-hypo(ἐστιν,ψυχῇ);	5:0 NOP(ὁ,ὁ); repl_pos(p,l);	6:37 unclass:no_rel_found_by_AGWN(Χριστὸν,σεαυτόν);	7:5 lem(ἀγαπῶν,Ἀγαπήσεις); repl_flex(n,'');	9:37 unclass:no_rel_found_by_AGWN(δεύτερος,σεαυτόν);	10:37 unclass:no_rel_found_by_AGWN(δὲ,σεαυτόν);	11:7 lem(ὁ,τὸν); repl_pos(p,l); repl_flex(n,a);	12:18 lem(τοὺς,τῇ); repl_pos(p,l); repl_flex(a,d);	13:37 unclass:no_rel_found_by_AGWN(ἐκείνῳ,σεαυτόν);	14 unclass:lemma_missing;	15:37 unclass:no_rel_found_by_AGWN(τιμῶν,σεαυτόν);	16:15 NOP(καὶ,καὶ); NOPmorph(c,c);	17 unclass:lemma_missing;																		
Lk 10 27c	http://www.biblindex.info/en/biblical/content/ref/GNT_Lk_10_27	29,1 p.176	0 unclass:lemma_missing;	1 unclass:lemma_missing;	2:38 repl_syn(μὲν,ὡς);	3:1 repl_co-hypo(οὖν,δὲ);	4:0 lem(ταῖς,ὁ); repl_flex(d,n);	5:3 repl_syn(ἐντολαῖς,εἶπεν);	6:37 unclass:no_rel_found_by_AGWN(ἀγάπην,σεαυτόν);	7:37 unclass:no_rel_found_by_AGWN(εἰσηγεῖται,σεαυτόν);	9 unclass:lemma_missing;	10:37 unclass:no_rel_found_by_AGWN(δ',σεαυτόν);	11:19 hyper(αὐτὴν,ψυχῇ);	12:2 repl_syn(διῄρηκε,ἀποκριθεὶς);	14:15 NOP(καὶ,καὶ); NOPmorph(c,c);	15:37 unclass:no_rel_found_by_AGWN(ὅπου,σεαυτόν);	16:37 unclass:no_rel_found_by_AGWN(μὲν,σεαυτόν);	17:7 lem(τὰ,τὸν); NOPmorph(la,la);	18:37 unclass:no_rel_found_by_AGWN(πρωτεῖα,σεαυτόν);	19:18 lem(τῆς,τῇ); repl_flex(g,d);	20:37 unclass:no_rel_found_by_AGWN(ἀγάπης,σεαυτόν);	21:37 unclass:no_rel_found_by_AGWN(ἀνάπτει,σεαυτόν);	22:21 repl_syn(τῷ,καὶ);	23:8 lem(θεῷ,θεόν); repl_flex(d,a);	25:37 unclass:no_rel_found_by_AGWN(ὅπου,σεαυτόν);	26:37 unclass:no_rel_found_by_AGWN(δὲ,σεαυτόν);	27:24 lem(τὰ,τῇ); repl_flex(a,d);	28:37 unclass:no_rel_found_by_AGWN(δευτερεῖα,σεαυτόν);	29 unclass:lemma_missing;	30:27 repl_syn(τῷ,καὶ);	31 unclass:lemma_missing;						
Lk 14 26	http://www.biblindex.info/en/biblical/content/ref/GNT_Lk_14_26	22,2 p.156/158	0:28 repl_syn(ὃς,τε);	1:5 repl_syn(οὐ,καὶ);	2:7 NOP(μισεῖ,μισεῖ); NOPmorph(v,v);	3 unclass:lemma_missing;	4:6 repl_syn(καὶ,οὐ);	5 unclass:lemma_missing;	6:11 NOP(καὶ,καὶ); NOPmorph(c,c);	7:19 repl_syn(παῖδας,τέκνα);	9 unclass:lemma_missing;	10:9 repl_co-hypo(δὲ,πατέρα);	11:14 NOP(καὶ,καὶ); NOPmorph(c,c);	12:8 lem(τὴν,τὸν); NOPmorph(la,la);	13:10 NOP(ἑαυτοῦ,ἑαυτοῦ); NOPmorph(pg,pg);	14 unclass:lemma_missing;	16:37 unclass:no_rel_found_by_AGWN(ἐμὸς,μαθητής);	17:31 hyper(μαθητὴς,ψυχὴν);	18:2 hypo(εἶναι,ἔρχεται);	19:17 repl_syn(οὐ,καὶ);	20 unclass:lemma_missing;																
Lk 14 33	http://www.biblindex.info/en/biblical/content/ref/GNT_Lk_14_33	14,5 p.138	0:9 lem(τὸ,τοῖς); repl_flex(n,d);	1:0 repl_syn(οὖν,οὕτως);	2:15 unclass:no_rel_found_by_AGWN(ἀποτάξασθαι,μαθητής);	3:2 lem(πᾶσι,πᾶς); repl_flex(d,n);	4:15 unclass:no_rel_found_by_AGWN(τοῖς,μαθητής);	5 unclass:lemma_missing;	6:1 repl_syn(καὶ,οὖν);	7:6 repl_co-hypo(πωλῆσαι,οὐκ);	8 unclass:lemma_missing;	9:15 unclass:no_rel_found_by_AGWN(τὰ,μαθητής);	10 unclass:lemma_missing;																								
Lk 10 29	http://www.biblindex.info/en/biblical/content/ref/GNT_Lk_10_29	28,2 p.174	0 unclass:lemma_missing;	1:12 lem(ἐστιν,ἐστίν); NOPmorph(h,h);	2 unclass:lemma_missing;																																
Lk 10 27	http://www.biblindex.info/en/biblical/content/ref/GNT_Lk_10_27	27,3 p.172	0:38 unclass:no_rel_found_by_AGWN(ἀγαπήσεις,σεαυτόν);	1 unclass:lemma_missing;	2:0 lem(τὸν,ὁ); repl_flex(a,n);	3 unclass:lemma_missing;	4:9 NOP(σου,σου); repl_pos(p,l);	5:10 NOP(ἐξ,ἐξ); NOPmorph(r,r);	6:11 NOP(ὅλης,ὅλης); NOPmorph(ag,ag);	7:7 lem(τῆς,τὸν); repl_flex(g,a);	8:13 repl_syn(ψυχῆς,καρδίας);	9:14 NOP(σου,σου); NOPmorph(pg,pg);	10:15 NOP(καὶ,καὶ); NOPmorph(c,c);	11:38 unclass:no_rel_found_by_AGWN(ἐξ,σεαυτόν);	12:17 lem(ὅλης,ὅλῃ); repl_flex(g,d);	13:18 lem(τῆς,τῇ); repl_flex(g,d);	14:38 unclass:no_rel_found_by_AGWN(δυνάμεώς,σεαυτόν);	15:20 NOP(σου,σου); NOPmorph(pg,pg);																			
Lk 10 21	http://www.biblindex.info/en/biblical/content/ref/GNT_Lk_10_21	31,1 p.180	0 unclass:lemma_missing;																																		
Lk 10 20	http://www.biblindex.info/en/biblical/content/ref/GNT_Lk_10_20	21,6 p.156	0:6 lem(τοῖς,τὰ); repl_flex(d,n);	1:1 NOP(ἐν,ἐν); NOPmorph(r,r);	2:20 NOP(οὐρανοῖς,οὐρανοῖς); NOPmorph(nd,nd);	3 unclass:lemma_missing;																															
Lk 12 58	http://www.biblindex.info/en/biblical/content/ref/GNT_Lk_12_58	40,5 p.204	0:7 repl_syn(πρὸς,ἐπ’);	1:4 lem(τὸν,τοῦ); repl_flex(a,g);	2 unclass:lemma_missing;																																
Lk 11 9	http://www.biblindex.info/en/biblical/content/ref/GNT_Lk_11_9	4,2 p.110	0:18 unclass:no_rel_found_by_AGWN(ὃ,ὑμῖν);	1:7 repl_co-hypo(δὲ,δοθήσεται);	2 unclass:lemma_missing;	3:18 unclass:no_rel_found_by_AGWN(δεομένοις,ὑμῖν);																															
Lk 11 8	http://www.biblindex.info/en/biblical/content/ref/GNT_Lk_11_8	42,19 p.222	0:9 repl_syn(μετὰ,διὰ);	1:23 unclass:no_rel_found_by_AGWN(ἀναιδείας,χρῄζει);																																	
Lk 10 16	http://www.biblindex.info/en/biblical/content/ref/GNT_Lk_10_16	30,5 p.180	0 unclass:lemma_missing;	1:19 unclass:no_rel_found_by_AGWN(ἐκ,με);	2:0 lem(τῶν,Ὁ); repl_pos(l,p); repl_flex(g,n);	3:19 unclass:no_rel_found_by_AGWN(ἐναντίων,με);	4:7 lem(τοὺς,ὁ); repl_pos(l,p); repl_flex(a,n);	5:19 unclass:no_rel_found_by_AGWN(ταῦτα,με);	6:19 unclass:no_rel_found_by_AGWN(μὴ,με);	7 unclass:lemma_missing;	8:3 repl_syn(αὐτοῖς,ἐμοῦ);	9:19 unclass:no_rel_found_by_AGWN(εἰς,με);	10:13 lem(τὸ,ὁ); repl_pos(l,p); repl_flex(a,n);	11:14 repl_co-hypo(πῦρ,δὲ);	12:19 unclass:no_rel_found_by_AGWN(ἐμβάλλει,με);	13:18 lem(τὸ,τὸν); NOPmorph(la,la);	14:19 unclass:no_rel_found_by_AGWN(αἰώνιον,με);	16:6 repl_syn(ὡς,καὶ);	17:10 repl_syn(αὐτῷ,ἐμὲ);	18:19 unclass:no_rel_found_by_AGWN(μὴ,με);	19 unclass:lemma_missing;	21:8 repl_co-hypo(καὶ,ἀθετῶν);	22:19 unclass:no_rel_found_by_AGWN(ἀλλαχοῦ,με);	24 unclass:lemma_missing;	25:19 unclass:no_rel_found_by_AGWN(ὁ,με);	26:2 lem(ὑμᾶς,ὑμῶν); repl_flex(a,g);	27:19 unclass:no_rel_found_by_AGWN(δεχόμενος,με);	28:15 NOP(ἐμὲ,ἐμὲ); NOPmorph(pa,pa);	29:19 unclass:no_rel_found_by_AGWN(δέχεται,με);	31:19 unclass:no_rel_found_by_AGWN(ὁ,με);	32:9 NOP(ὑμᾶς,ὑμᾶς); NOPmorph(pa,pa);	33:19 unclass:no_rel_found_by_AGWN(μὴ,με);	34:19 unclass:no_rel_found_by_AGWN(δεχόμενος,με);	35:20 lem(ἐμὲ,με); NOPmorph(pa,pa);	36:11 NOP(ἀθετεῖ,ἀθετεῖ); NOPmorph(v,v);	38 unclass:lemma_missing;	
Lk 6 45	http://www.biblindex.info/en/biblical/content/ref/GNT_Lk_6_45	14,5 p.138	0:30 repl_syn(ἵνα,αὐτοῦ);	1:1 repl_syn(καλὸς,ἀγαθὸς);	2:13 NOP(καὶ,καὶ); NOPmorph(c,c);	3:5 lem(ἀγαθὸς,ἀγαθοῦ); repl_flex(n,g);	4:28 unclass:no_rel_found_by_AGWN(γενόμενος,στόμα);	5:28 unclass:no_rel_found_by_AGWN(καὶ,στόμα);	6 unclass:lemma_missing;	7:0 lem(τοῖς,ὁ); repl_flex(d,n);	8 unclass:lemma_missing;	9:8 repl_co-hypo(χρῆσθαι,καρδίας);	10:28 unclass:no_rel_found_by_AGWN(δυνηθῇ,στόμα);	11:11 repl_syn(καλῶς,ἀγαθόν);																							
Lk 6 46	http://www.biblindex.info/en/biblical/content/ref/GNT_Lk_6_46	29,6 p.178	0 unclass:lemma_missing;	1 unclass:lemma_missing;	3 unclass:lemma_missing;	4 unclass:lemma_missing;	5:2 NOP(με,με); NOPmorph(pa,pa);	6 unclass:lemma_missing;	7 unclass:lemma_missing;	8 unclass:lemma_missing;	9:8 NOP(καὶ,καὶ); NOPmorph(c,c);	10:9 NOP(οὐ,οὐ); NOPmorph(d,d);	11:1 repl_co-hypo(ποιεῖτε,δέ);	12:11 NOP(ἃ,ἃ); NOPmorph(pa,pa);	13 unclass:lemma_missing;	15 unclass:lemma_missing;																					
Lk 14 26b	http://www.biblindex.info/en/biblical/content/ref/GNT_Lk_14_26	22,7 p.158	0:0 lem(εἰ,Εἴ); NOPmorph(c,c);	1:37 unclass:no_rel_found_by_AGWN(γοῦν,μαθητής);	2:37 unclass:no_rel_found_by_AGWN(ἄθεος,μαθητής);	3:2 hypo(εἴη,ἔρχεται);	4:1 lem(τινὶ,τις); repl_flex(d,n);	5:9 lem(πατὴρ,πατέρα); repl_flex(n,a);	6:37 unclass:no_rel_found_by_AGWN(ἢ,μαθητής);	7:37 unclass:no_rel_found_by_AGWN(υἱὸς,μαθητής);	8:37 unclass:no_rel_found_by_AGWN(ἢ,μαθητής);	9 unclass:lemma_missing;	10:5 NOP(καὶ,καὶ); NOPmorph(c,c);	11 unclass:lemma_missing;	12:8 lem(τῆς,τὸν); repl_flex(g,a);	13 unclass:lemma_missing;	14:37 unclass:no_rel_found_by_AGWN(γένοιτο,μαθητής);	15:6 repl_syn(καὶ,οὐ);	16:37 unclass:no_rel_found_by_AGWN(ἐμπόδιον,μαθητής);	17:12 lem(τῆς,τὴν); repl_flex(g,a);	18:37 unclass:no_rel_found_by_AGWN(ἄνω,μαθητής);	19:31 repl_syn(ζωῆς,ψυχὴν);	21 unclass:lemma_missing;	22:34 repl_syn(μὴ,οὐ);	23 unclass:lemma_missing;	24:37 unclass:no_rel_found_by_AGWN(μηδὲ,μαθητής);	25 unclass:lemma_missing;	27:11 repl_syn(ἀλλὰ,καὶ);	28:15 NOP(τὴν,τὴν); NOPmorph(la,la);	29 unclass:lemma_missing;	30 unclass:lemma_missing;	31:37 unclass:no_rel_found_by_AGWN(διὰ,μαθητής);	32:18 lem(τὴν,τὰ); NOPmorph(la,la);	33 unclass:lemma_missing;	34:7 repl_syn(ἔχθραν,μισεῖ);	35 unclass:lemma_missing;	
Lk 14 26c	http://www.biblindex.info/en/biblical/content/ref/GNT_Lk_14_26	23,5 p.162	0:5 repl_syn(κἂν,καὶ);	1 unclass:lemma_missing;	2:37 unclass:no_rel_found_by_AGWN(ὅμοια,μαθητής);	3 unclass:lemma_missing;	4:6 repl_syn(κἂν,οὐ);	5 unclass:lemma_missing;	6:11 repl_syn(κἂν,καὶ);	7:16 lem(γυνὴ,γυναῖκα); repl_flex(n,a);	8:14 repl_syn(κἂν,καὶ);	9:37 unclass:no_rel_found_by_AGWN(ὁστισοῦν,μαθητής);	11:3 lem(πρὸ,πρός); NOPmorph(r,r);	12 unclass:lemma_missing;	13:37 unclass:no_rel_found_by_AGWN(ἐν,μαθητής);	14:37 unclass:no_rel_found_by_AGWN(σοὶ,μαθητής);	15:37 unclass:no_rel_found_by_AGWN(Χριστὸς,μαθητής);	16:8 lem(ὁ,τὸν); repl_flex(n,a);	17:2 repl_co-hypo(νικῶν,ἔρχεται);	18:36 lem(ἔστω,εἶναί); NOPmorph(v,v);																	
Lk 14 26a	http://www.biblindex.info/en/biblical/content/ref/GNT_Lk_14_26	22,5 p.158	0:5 repl_syn(ἀλλ',καὶ);	1:37 unclass:no_rel_found_by_AGWN(οὐδ',μαθητής);	2:2 repl_co-hypo(ἀναιροῦσιν,ἔρχεται);	3:37 unclass:no_rel_found_by_AGWN(οὐδ',μαθητής);	4:37 unclass:no_rel_found_by_AGWN(ἐγγύς,μαθητής);	6:37 unclass:no_rel_found_by_AGWN(ἀπὸ,μαθητής);	7:37 unclass:no_rel_found_by_AGWN(γὰρ,μαθητής);	8:8 lem(τῆς,τὸν); repl_flex(g,a);	9:4 repl_syn(αὐτῆς,με);	10:37 unclass:no_rel_found_by_AGWN(γνώμης,μαθητής);	11:6 repl_syn(καὶ,οὐ);	12:37 unclass:no_rel_found_by_AGWN(διαθέσεως,μαθητής);	13:11 NOP(καὶ,καὶ); NOPmorph(c,c);	14:3 repl_syn(ἐπὶ,πρός);	15:12 lem(τῷ,τὴν); repl_flex(d,a);	16:19 repl_co-hypo(αὐτῷ,τέκνα);	17:37 unclass:no_rel_found_by_AGWN(ὅρῳ,μαθητής);	18 unclass:lemma_missing;	19 unclass:lemma_missing;	20:1 NOP(τις,τις); NOPmorph(pn,pn);	21:37 unclass:no_rel_found_by_AGWN(ἂν,μαθητής);	22 unclass:lemma_missing;	23:37 unclass:no_rel_found_by_AGWN(ἐχθρὸν,μαθητής);	24 unclass:lemma_missing;	25:15 lem(ὁ,τὴν); repl_flex(n,a);	26 unclass:lemma_missing;	27:37 unclass:no_rel_found_by_AGWN(ἐχθρὸν,μαθητής);	28:37 unclass:no_rel_found_by_AGWN(ἀμυνόμενος,μαθητής);	29 unclass:lemma_missing;	30 unclass:lemma_missing;	31:37 unclass:no_rel_found_by_AGWN(Χριστοῦ,μαθητής);	32 unclass:lemma_missing;	33:37 unclass:no_rel_found_by_AGWN(αἰδούμενος,μαθητής);		
Lk 6 45b	http://www.biblindex.info/en/biblical/content/ref/GNT_Lk_6_45	17,2 p.144	0 unclass:lemma_missing;	1:0 NOP(ὁ,ὁ); NOPmorph(ln,ln);	2 unclass:lemma_missing;	3:24 NOP(γὰρ,γὰρ); NOPmorph(g,g);	4 unclass:lemma_missing;	5:1 NOP(ἀγαθὸς,ἀγαθὸς); NOPmorph(an,an);	6:2 NOP(ἄνθρωπος,ἄνθρωπος); NOPmorph(nn,nn);	7:3 NOP(ἐκ,ἐκ); NOPmorph(r,r);	8:4 NOP(τοῦ,τοῦ); NOPmorph(lg,lg);	9:5 NOP(ἀγαθοῦ,ἀγαθοῦ); NOPmorph(ag,ag);	10:6 NOP(θησαυροῦ,θησαυροῦ); NOPmorph(ng,ng);	11:7 NOP(τῆς,τῆς); NOPmorph(lg,lg);	12:29 unclass:no_rel_found_by_AGWN(καρδίας,αὐτοῦ);	13 unclass:lemma_missing;	14:10 NOP(τὸ,τὸ); NOPmorph(la,la);	15 unclass:lemma_missing;	16 unclass:lemma_missing;																		
Lk 6 45a	http://www.biblindex.info/en/biblical/content/ref/GNT_Lk_6_45	15,1 p.138	0:2 repl_co-hypo(ψυχῆς,ἄνθρωπος);	2:0 lem(τὰ,ὁ); NOPmorph(ln,ln);	3:29 unclass:no_rel_found_by_AGWN(δὲ,αὐτοῦ);	4 unclass:lemma_missing;	6:13 repl_syn(κἂν,καὶ);	7:29 unclass:no_rel_found_by_AGWN(μὲν,αὐτοῦ);	8:4 lem(ἡ,τοῦ); repl_flex(n,g);	9:8 repl_syn(ψυχὴ,καρδίας);	10:26 repl_co-hypo(χρῆται,καρδίας);	11:1 repl_syn(καλῶς,ἀγαθὸς);	13:5 repl_syn(καλὰ,ἀγαθοῦ);	14:29 unclass:no_rel_found_by_AGWN(καὶ,αὐτοῦ);	15:29 unclass:no_rel_found_by_AGWN(ταῦτα,αὐτοῦ);	16:6 repl_co-hypo(δοκεῖ,θησαυροῦ);	18:29 unclass:no_rel_found_by_AGWN(ἐὰν,αὐτοῦ);	19:29 unclass:no_rel_found_by_AGWN(δὲ,αὐτοῦ);	20:15 lem(πονηρῶς,πονηρὸς); repl_flex('',n);	22 unclass:lemma_missing;	24:7 lem(ὁ,τῆς); repl_flex(n,g);	25:29 unclass:no_rel_found_by_AGWN(κελεύων,αὐτοῦ);	26:29 unclass:no_rel_found_by_AGWN(ἀπαλλοτριοῦν,αὐτοῦ);	27:10 lem(τὰ,τὸ); NOPmorph(la,la);	28 unclass:lemma_missing;												
Lk 10 23-24	http://www.biblindex.info/en/biblical/content/ref/GNT_Lk_10_23	29,6 p.178	0 unclass:lemma_missing;	2 unclass:lemma_missing;	3:19 lem(ὑμεῖς,ὑμῖν); repl_flex(n,d);	4 unclass:lemma_missing;	5:3 lem(οἱ,τοὺς); repl_pos(p,l); repl_flex(n,a);	6:7 repl_co-hypo(ὁρῶντες,εἶπεν);	7:0 upper(καὶ,Καὶ); NOPmorph(c,c);	8:39 unclass:no_rel_found_by_AGWN(ἀκούοντες,ἤκουσαν);	9:14 NOP(ἃ,ἃ); repl_pos(l,p);	10 unclass:lemma_missing;	11 unclass:lemma_missing;	12 unclass:lemma_missing;	13 unclass:lemma_missing;	14 unclass:lemma_missing;	16:39 unclass:no_rel_found_by_AGWN(ἐὰν,ἤκουσαν);	17:13 hyper(ποιῆτε,βλέποντες);	18:27 NOP(ἃ,ἃ); repl_pos(l,p);	19 unclass:lemma_missing;																	
Lk 6 27	http://www.biblindex.info/en/biblical/content/ref/GNT_Lk_6_27	22,3 p.158	0:3 lem(ὅ,τοῖς); repl_flex(n,d);	1:14 unclass:no_rel_found_by_AGWN(γε,ὑμᾶς);	2:0 repl_syn(καὶ,Ἀλλὰ);	3:7 NOP(τοὺς,τοὺς); NOPmorph(la,la);	4:8 NOP(ἐχθροὺς,ἐχθροὺς); NOPmorph(na,na);	5:6 lem(ἀγαπᾶν,ἀγαπᾶτε); NOPmorph(v,v);	6:2 repl_co-hypo(παραινῶν,λέγω);																												
Lk 6 29	http://www.biblindex.info/en/biblical/content/ref/GNT_Lk_6_29	18,4 p.146	0 unclass:lemma_missing;	1:21 unclass:no_rel_found_by_AGWN(γοῦν,κωλύσῃς);	2 unclass:lemma_missing;	3:0 lem(τὸ,τῷ); repl_flex(a,d);	4 unclass:lemma_missing;																														
Lk 6 27a	http://www.biblindex.info/en/biblical/content/ref/GNT_Lk_6_27	22,4 p.158	0:14 unclass:no_rel_found_by_AGWN(εἰ,ὑμᾶς);	1:0 repl_syn(δὲ,Ἀλλὰ);	2:3 lem(τοὺς,τοῖς); repl_flex(a,d);	3:8 NOP(ἐχθροὺς,ἐχθροὺς); NOPmorph(na,na);	4 unclass:lemma_missing;																														
Lk 16 16	http://www.biblindex.info/en/biblical/content/ref/GNT_Lk_16_16	42,19 p.222	0 unclass:lemma_missing;																																		
Lk 6 35	http://www.biblindex.info/en/biblical/content/ref/GNT_Lk_6_35	22,4 p.158	0:31 unclass:no_rel_found_by_AGWN(ἀνάλογον,πονηρούς);	1:31 unclass:no_rel_found_by_AGWN(ἀπ',πονηρούς);	2 unclass:lemma_missing;	3 unclass:lemma_missing;	4:5 NOP(καὶ,καὶ); NOPmorph(c,c);	5:2 NOP(τοὺς,τοὺς); NOPmorph(la,la);	6 unclass:lemma_missing;	7:31 unclass:no_rel_found_by_AGWN(γένους,πονηρούς);	9:31 unclass:no_rel_found_by_AGWN(ἢ,πονηρούς);	10:31 unclass:no_rel_found_by_AGWN(εἰ,πονηρούς);	11 unclass:lemma_missing;	12:14 lem(τοὺς,ὁ); repl_flex(g,n);	13:28 repl_syn(πρὸς,ἐπὶ);	14:31 unclass:no_rel_found_by_AGWN(αἵματος,πονηρούς);	16:17 lem(πολὺ,πολύς); repl_flex('',n);	17:0 repl_syn(μᾶλλον,πλὴν);	18:29 NOP(τοὺς,τοὺς); NOPmorph(la,la);	19:3 NOP(ἐχθροὺς,ἐχθροὺς); repl_pos(a,n);	20 unclass:lemma_missing;	21:31 unclass:no_rel_found_by_AGWN(κατιὼν,πονηρούς);	22:31 unclass:no_rel_found_by_AGWN(ὁ,πονηρούς);	23 unclass:lemma_missing;	24:31 unclass:no_rel_found_by_AGWN(διδάσκει,πονηρούς);												
Lk 17 33	http://www.biblindex.info/en/biblical/content/ref/GNT_Lk_17_33	24,2 p.162	0:14 unclass:no_rel_found_by_AGWN(κἂν,αὐτήν);	1:14 unclass:no_rel_found_by_AGWN(ποὺς,αὐτήν);	2:14 unclass:no_rel_found_by_AGWN(κἂν,αὐτήν);	3:3 lem(ἡ,τὴν); repl_flex(n,a);	4 unclass:lemma_missing;	6 unclass:lemma_missing;	7 unclass:lemma_missing;	9:12 NOP(ἂν,ἂν); NOPmorph(g,g);	10:14 unclass:no_rel_found_by_AGWN(γὰρ,αὐτήν);	11:5 repl_syn(ἐνταῦθα,αὐτοῦ);	12:14 unclass:no_rel_found_by_AGWN(ἀπόληται,αὐτήν);	13:14 unclass:no_rel_found_by_AGWN(ὑπὲρ,αὐτήν);	14:14 unclass:no_rel_found_by_AGWN(Χριστοῦ,αὐτήν);	16:14 unclass:no_rel_found_by_AGWN(ἐκεῖ,αὐτήν);	17 unclass:lemma_missing;																				
Lk 1 78	http://www.biblindex.info/en/biblical/content/ref/GNT_Lk_1_78	29,4 p.176/178	0 unclass:lemma_missing;	1:11 unclass:no_rel_found_by_AGWN(ὁ,ὕψους);	2:11 unclass:no_rel_found_by_AGWN(τὸ,ὕψους);	3:11 unclass:no_rel_found_by_AGWN(ἔλαιον,ὕψους);	5:11 unclass:no_rel_found_by_AGWN(τὸν,ὕψους);	6:11 lem(ἐκ,ἐξ); NOPmorph(r,r);	7 unclass:lemma_missing;	8:10 unclass:no_rel_found_by_AGWN(πατρὸς,ὕψους);	9:2 lem(ἔλεον,ἐλέους); repl_flex(a,g);																										
Lk 6 30	http://www.biblindex.info/en/biblical/content/ref/GNT_Lk_6_30	31,9 p.184	0 unclass:lemma_missing;	1:0 NOP(παντὶ,παντὶ); NOPmorph(md,md);	2:5 repl_syn(τῷ,καὶ);	3 unclass:lemma_missing;	4:2 NOP(σε,σε); NOPmorph(pa,pa);	5:11 unclass:no_rel_found_by_AGWN(δίδου,ἀπαίτει);	7 unclass:lemma_missing;																												
Lk 11 13	http://www.biblindex.info/en/biblical/content/ref/GNT_Lk_11_13	39,6 p.202	0:0 NOP(εἰ,εἰ); NOPmorph(c,c);	1:1 repl_co-hypo(δὲ,οὖν);	2:25 repl_syn(ἡμεῖς,αὐτόν);	3:3 NOP(πονηροὶ,πονηροὶ); NOPmorph(an,an);	4:4 hypo(ὄντες,ὑπάρχοντες);	5:5 lem(ἴσμεν,οἴδατε); NOPmorph(v,v);	6:7 NOP(ἀγαθὰ,ἀγαθὰ); NOPmorph(aa,aa);	7:23 unclass:no_rel_found_by_AGWN(δόματα,αἰτοῦσιν);	8:23 unclass:no_rel_found_by_AGWN(διδόναι,αἰτοῦσιν);	10 unclass:lemma_missing;	11:14 NOP(μᾶλλον,μᾶλλον); NOPmorph(d,d);	12 unclass:lemma_missing;	13:9 lem(ὁ,τοῖς); repl_flex(n,d);	14:8 repl_co-hypo(πατὴρ,διδόναι);	15:15 lem(τῶν,ὁ); repl_flex(g,n);	16:23 unclass:no_rel_found_by_AGWN(οἰκτιρμῶν,αἰτοῦσιν);	17 unclass:lemma_missing;																		
Lk 10 33-35	http://www.biblindex.info/en/biblical/content/ref/GNT_Lk_10_33	29,1 p.176	0 unclass:lemma_missing;	1 unclass:lemma_missing;	2:63 unclass:no_rel_found_by_AGWN(μὲν,σοι);	3:1 repl_co-hypo(οὖν,δέ);	4:14 lem(ταῖς,τὰ); repl_flex(d,a);	5:8 repl_co-hypo(ἐντολαῖς,ἰδὼν);	6:63 unclass:no_rel_found_by_AGWN(ἀγάπην,σοι);	7:22 hyper(εἰσηγεῖται,ἐπιβιβάσας);	9 unclass:lemma_missing;	10:23 lem(δ',δὲ); NOPmorph(g,g);	11:6 lem(αὐτὴν,αὐτὸν); repl_pos(l,p);	12:3 repl_co-hypo(διῄρηκε,ὁδεύων);	14:7 NOP(καὶ,καὶ); NOPmorph(c,c);	15:63 unclass:no_rel_found_by_AGWN(ὅπου,σοι);	16:63 unclass:no_rel_found_by_AGWN(μὲν,σοι);	17:26 lem(τὰ,τὸ); repl_flex(a,n);	18:63 unclass:no_rel_found_by_AGWN(πρωτεῖα,σοι);	19:39 lem(τῆς,τὴν); repl_flex(g,a);	20:63 unclass:no_rel_found_by_AGWN(ἀγάπης,σοι);	21:63 unclass:no_rel_found_by_AGWN(ἀνάπτει,σοι);	22:11 repl_syn(τῷ,καὶ);	23:63 unclass:no_rel_found_by_AGWN(θεῷ,σοι);	25:63 unclass:no_rel_found_by_AGWN(ὅπου,σοι);	26:29 repl_co-hypo(δὲ,ἤγαγεν);	27:45 lem(τὰ,τῷ); repl_flex(a,d);	28:63 unclass:no_rel_found_by_AGWN(δευτερεῖα,σοι);	29 unclass:lemma_missing;	30:19 repl_syn(τῷ,καὶ);	31 unclass:lemma_missing;						
Lk 6 37-38	http://www.biblindex.info/en/biblical/content/ref/GNT_Lk_6_37	33,4 p.188	0 unclass:lemma_missing;	1 unclass:lemma_missing;	3 unclass:lemma_missing;	4:0 upper(καὶ,Καὶ); NOPmorph(c,c);	5 unclass:lemma_missing;	7 unclass:lemma_missing;	9:44 unclass:no_rel_found_by_AGWN(ἀποδοθήσεταί,ὑμῖν);	10:27 lem(σοι,ὑμῖν); NOPmorph(pd,pd);																											
Lk 18 22	http://www.biblindex.info/en/biblical/content/ref/GNT_Lk_18_22	19,6 p.150	0:7 repl_co-hypo(πωλεῖς,Ἔτι);	1:2 lem(τὰ,ὁ); repl_flex(a,n);	2 unclass:lemma_missing;	3:29 unclass:no_rel_found_by_AGWN(οἱ,μοι);	4:18 lem(πτωχοὶ,πτωχοῖς); repl_flex(n,d);	5:1 repl_co-hypo(ἔχοις,δὲ);	6:29 unclass:no_rel_found_by_AGWN(ἂν,μοι);	7:14 hyper(θησαυρὸν,ἔχεις);	8:23 NOP(ἐν,ἐν); NOPmorph(r,r);	9:25 NOP(οὐρανοῖς,οὐρανοῖς); NOPmorph(nd,nd);																									
Lk 17 3-4	http://www.biblindex.info/en/biblical/content/ref/GNT_Lk_17_3	39,5 p.202	0:5 NOP(ὁ,ὁ); NOPmorph(ln,ln);	1 unclass:lemma_missing;	2 unclass:lemma_missing;	3:20 lem(τοῖς,τῆς); repl_flex(d,g);	4 unclass:lemma_missing;	5:13 lem(μετανοοῦσιν,μετανοήσῃ); repl_flex(d,'');																													
Lk 10 33-35a	http://www.biblindex.info/en/biblical/content/ref/GNT_Lk_10_33	29,4 p.176/178	0 unclass:lemma_missing;	1:14 lem(ὁ,τὰ); repl_flex(n,a);	2:26 NOP(τὸ,τὸ); repl_flex(a,n);	3:18 NOP(ἔλαιον,ἔλαιον); NOPmorph(na,na);	5:39 lem(τὸν,τὴν); NOPmorph(la,la);	6:63 unclass:no_rel_found_by_AGWN(ἐκ,σοι);	7 unclass:lemma_missing;	8:1 repl_co-hypo(πατρὸς,δέ);	9:9 repl_syn(ἔλεον,ἐσπλαγχνίσθη);																										
Lk 20 38	http://www.biblindex.info/en/biblical/content/ref/GNT_Lk_20_38	42,19 p.222	0 unclass:lemma_missing;	1:10 unclass:no_rel_found_by_AGWN(Χριστοῦ,ζῶσιν);	3:10 unclass:no_rel_found_by_AGWN(τοῦ,ζῶσιν);	4 unclass:lemma_missing;	5:11 lem(ζώντων,ζῶσιν); repl_flex(g,'');	6:2 repl_syn(καὶ,οὐκ);	7:4 NOP(νεκρῶν,νεκρῶν); NOPmorph(ng,ng);																												
Lk 12 32	http://www.biblindex.info/en/biblical/content/ref/GNT_Lk_12_32	31,2 p.180	0 unclass:lemma_missing;	1:0 upper(μὴ,Μὴ); NOPmorph(d,d);	2 unclass:lemma_missing;	4:3 NOP(τὸ,τὸ); NOPmorph(lv,lv);	5:4 NOP(μικρὸν,μικρὸν); NOPmorph(av,av);	6 unclass:lemma_missing;	8:11 lem(ὑμῖν,ὑμῶν); repl_flex(d,g);	9:14 unclass:no_rel_found_by_AGWN(γὰρ,βασιλείαν);	10:14 unclass:no_rel_found_by_AGWN(εὐδόκησεν,βασιλείαν);	11:9 NOP(ὁ,ὁ); NOPmorph(ln,ln);	12:10 NOP(πατὴρ,πατὴρ); NOPmorph(nn,nn);	13:12 repl_syn(παραδοῦναι,δοῦναι);	14:14 NOP(τὴν,τὴν); NOPmorph(la,la);	15:13 unclass:no_rel_found_by_AGWN(βασιλείαν,βασιλείαν);	16 unclass:lemma_missing;																				
Lk 12 34	http://www.biblindex.info/en/biblical/content/ref/GNT_Lk_12_34	17,1 p.142	0 unclass:lemma_missing;	1:11 unclass:no_rel_found_by_AGWN(ἐπάναγκες,ἔσται);	2:11 unclass:no_rel_found_by_AGWN(οἷς,ἔσται);	3:11 unclass:no_rel_found_by_AGWN(εἵλετο,ἔσται);	5 unclass:lemma_missing;	6:0 NOP(ὅπου,ὅπου); NOPmorph(d,d);	7:1 lem(γὰρ,γάρ); NOPmorph(g,g);	8:3 NOP(ὁ,ὁ); NOPmorph(ln,ln);	9:11 unclass:no_rel_found_by_AGWN(νοῦς,ἔσται);	10:9 lem(τοῦ,ἡ); repl_flex(g,n);	11:11 unclass:no_rel_found_by_AGWN(ἀνθρώπου,ἔσται);	13:7 NOP(ἐκεῖ,ἐκεῖ); NOPmorph(d,d);	14:8 NOP(καὶ,καὶ); NOPmorph(c,c);	15:11 unclass:no_rel_found_by_AGWN(ὁ,ἔσται);	16:4 NOP(θησαυρὸς,θησαυρὸς); NOPmorph(nn,nn);	17:11 unclass:no_rel_found_by_AGWN(αὐτοῦ,ἔσται);	19 unclass:lemma_missing;																		
Lk 22 20	http://www.biblindex.info/en/biblical/content/ref/GNT_Lk_22_20	29,4 p.176/178	0:10 lem(οὗτος,Τοῦτο); NOPmorph(pn,pn);	1 unclass:lemma_missing;	2:1 lem(τὸν,τὸ); NOPmorph(la,la);	3:23 unclass:no_rel_found_by_AGWN(οἶνον,ἐκχυννόμενον);	5:5 NOP(τὸ,τὸ); NOPmorph(la,la);	6:18 lem(αἷμα,αἵματί); repl_flex(a,d);	7:11 lem(τῆς,τὸ); repl_flex(g,n);	8:23 unclass:no_rel_found_by_AGWN(ἀμπέλου,ἐκχυννόμενον);	9:13 lem(τῆς,ἡ); repl_flex(g,n);	10 unclass:lemma_missing;	12 unclass:lemma_missing;	13:19 lem(ἡμῶν,μου); repl_pos(n,p); repl_flex(g,d);	14:0 repl_syn(ἐπὶ,καὶ);	15:17 lem(τὰς,τῷ); repl_flex(a,d);	16 unclass:lemma_missing;	17 unclass:lemma_missing;																			
Lk 5 21	http://www.biblindex.info/en/biblical/content/ref/GNT_Lk_5_21	39,5 p.202	0:25 lem(θεῷ,θεός); repl_flex(d,n);	1:23 unclass:no_rel_found_by_AGWN(γὰρ,ὁ);	2 unclass:lemma_missing;	3:18 repl_syn(δυνατὸν,δύναται);	4 unclass:lemma_missing;	5:13 repl_co-hypo(ἁμαρτιῶν,ὃς);	6 unclass:lemma_missing;																												
Lk 9 60	http://www.biblindex.info/en/biblical/content/ref/GNT_Lk_9_60	23,2 p.160	0 unclass:lemma_missing;	1:5 lem(οἱ,τοὺς); repl_flex(n,a);	2:6 lem(νεκροὶ,νεκροὺς); repl_flex(n,a);	3:8 NOP(τοὺς,τοὺς); NOPmorph(la,la);	4:9 repl_syn(νεκροὺς,ἑαυτῶν);	5 unclass:lemma_missing;																													
Lk 16 9	http://www.biblindex.info/en/biblical/content/ref/GNT_Lk_16_9	31,5 p.182	0 unclass:lemma_missing;	1 unclass:lemma_missing;	2:5 NOP(ἑαυτοῖς,ἑαυτοῖς); NOPmorph(pd,pd);	3 unclass:lemma_missing;	4:8 NOP(ἐκ,ἐκ); NOPmorph(r,r);	5:9 NOP(τοῦ,τοῦ); NOPmorph(lg,lg);	6:10 NOP(μαμωνᾶ,μαμωνᾶ); NOPmorph(ng,ng);	7:11 NOP(τῆς,τῆς); NOPmorph(lg,lg);	8 unclass:lemma_missing;	10:14 NOP(ἵνα,ἵνα); NOPmorph(c,c);	11:15 NOP(ὅταν,ὅταν); NOPmorph(c,c);	12:21 unclass:no_rel_found_by_AGWN(ἐκλίπῃ,σκηνάς);	14:21 unclass:no_rel_found_by_AGWN(δέξωνται,σκηνάς);	15:2 lem(ὑμᾶς,ὑμῖν); repl_flex(a,d);	16:19 NOP(εἰς,εἰς); NOPmorph(r,r);	17:20 NOP(τὰς,τὰς); NOPmorph(la,la);	18:21 unclass:no_rel_found_by_AGWN(αἰωνίους,σκηνάς);	19 unclass:lemma_missing;	21 unclass:lemma_missing;																
Lk 9 62	http://www.biblindex.info/en/biblical/content/ref/GNT_Lk_9_62	39,6 p.202	0 unclass:lemma_missing;	1:20 unclass:no_rel_found_by_AGWN(βλέπειν,θεοῦ);	2:13 NOP(εἰς,εἰς); NOPmorph(r,r);	3:2 lem(τὰ,ὁ); repl_flex(a,n);	4 unclass:lemma_missing;																														
Lk 7 28	http://www.biblindex.info/en/biblical/content/ref/GNT_Lk_7_28	31,3 p.180/182	0:0 repl_co-hypo(κατὰ,λέγω);	1:11 lem(τὰ,ὁ); repl_pos(l,p); repl_flex(a,n);	2:20 lem(αὐτὰ,αὐτοῦ); repl_flex(a,g);	3:19 unclass:no_rel_found_by_AGWN(καὶ,ἐστιν);	4:15 lem(τοῦ,τῇ); repl_flex(g,d);	5 unclass:lemma_missing;	6:4 NOP(ἐν,ἐν); NOPmorph(r,r);	7:5 NOP(γεννητοῖς,γεννητοῖς); NOPmorph(ad,ad);	8:6 NOP(γυναικῶν,γυναικῶν); NOPmorph(ng,ng);	9 unclass:lemma_missing;	10:17 lem(τὸν,τοῦ); repl_flex(a,g);	11:19 unclass:no_rel_found_by_AGWN(ἐλάχιστον,ἐστιν);	12:14 NOP(ἐν,ἐν); NOPmorph(r,r);	13:19 unclass:no_rel_found_by_AGWN(τῇ,ἐστιν);	14 unclass:lemma_missing;	15:19 unclass:no_rel_found_by_AGWN(τῶν,ἐστιν);	16:19 unclass:no_rel_found_by_AGWN(οὐρανῶν,ἐστιν);	18 unclass:lemma_missing;	19:19 unclass:no_rel_found_by_AGWN(τὸν,ἐστιν);	20:19 unclass:no_rel_found_by_AGWN(ἑαυτοῦ,ἐστιν);	21 unclass:lemma_missing;	23:9 lem(εἶναι,ἐστιν); NOPmorph(h,h);	24 unclass:lemma_missing;	25 unclass:lemma_missing;											
Lk 12 4	http://www.biblindex.info/en/biblical/content/ref/GNT_Lk_12_4	31,1 p.180	0 unclass:lemma_missing;	1 unclass:lemma_missing;																																	
Lk 16 9a	http://www.biblindex.info/en/biblical/content/ref/GNT_Lk_16_9	31,9 p.184	0:21 unclass:no_rel_found_by_AGWN(αἰώνιον,σκηνάς);	1 unclass:lemma_missing;																																	
Lk 3 9	http://www.biblindex.info/en/biblical/content/ref/GNT_Lk_3_9	29,3 p.176	0 unclass:lemma_missing;	1:1 NOP(δὲ,δὲ); NOPmorph(g,g);	2:3 lem(τῶν,ἡ); repl_flex(g,n);	3 unclass:lemma_missing;	4 unclass:lemma_missing;	5:22 unclass:no_rel_found_by_AGWN(ἰατρὸς,βάλλεται);	6 unclass:lemma_missing;	8:22 unclass:no_rel_found_by_AGWN(ἐκκόπτων,βάλλεται);	9:22 repl_co-hypo(ἄρδην,πῦρ);	10:6 lem(τὰ,τὴν); NOPmorph(la,la);	11 unclass:lemma_missing;	12 unclass:lemma_missing;	14:2 repl_syn(οὐχ,καὶ);	15:21 unclass:no_rel_found_by_AGWN(ὥσπερ,βάλλεται);	16:8 lem(ὁ,τῶν); repl_flex(n,g);	17 unclass:lemma_missing;	18 unclass:lemma_missing;	19:21 unclass:no_rel_found_by_AGWN(τὰ,βάλλεται);	20 unclass:lemma_missing;	22:21 unclass:no_rel_found_by_AGWN(τοὺς,βάλλεται);	23:17 lem(καρποὺς,καρπὸν); NOPmorph(na,na);	24:21 unclass:no_rel_found_by_AGWN(τῶν,βάλλεται);	25:21 unclass:no_rel_found_by_AGWN(πονηρῶν,βάλλεται);	26 unclass:lemma_missing;	28:20 repl_syn(ἀλλὰ,καὶ);	29:21 unclass:no_rel_found_by_AGWN(τὴν,βάλλεται);	30:21 unclass:no_rel_found_by_AGWN(ἀξίνην,βάλλεται);	31:21 unclass:no_rel_found_by_AGWN(τὴν,βάλλεται);	32:21 unclass:no_rel_found_by_AGWN(ἑαυτοῦ,βάλλεται);	33:5 NOP(πρὸς,πρὸς); NOPmorph(r,r);	34:21 unclass:no_rel_found_by_AGWN(τὰς,βάλλεται);	35 unclass:lemma_missing;	36:21 unclass:no_rel_found_by_AGWN(τῆς,βάλλεται);	37:21 unclass:no_rel_found_by_AGWN(κακίας,βάλλεται);	38 unclass:lemma_missing;
Joh 14 6	http://www.biblindex.info/en/biblical/content/ref/GNT_Jn_14_6	16,2 p.140/142	0:8 NOP(ὁδὸς,ὁδὸς); NOPmorph(nn,nn);	1:23 unclass:no_rel_found_by_AGWN(γὰρ,ἐμοῦ);	2:1 lem(αὐτὸς,αὐτῷ); repl_flex(n,d);	3:23 unclass:no_rel_found_by_AGWN(ἤδη,ἐμοῦ);	4:2 lem(τῷ,ὁ); repl_flex(d,n);	5:0 repl_co-hypo(καθαρῷ,λέγει);	6:7 lem(τὴν,ἡ); repl_flex(a,n);	7:23 unclass:no_rel_found_by_AGWN(καρδίαν,ἐμοῦ);	8 unclass:lemma_missing;	10:23 unclass:no_rel_found_by_AGWN(εἰς,ἐμοῦ);	11:20 repl_co-hypo(δὲ,πατέρα);																								
Joh 17 3a	http://www.biblindex.info/en/biblical/content/ref/GNT_Jn_17_3	7,3 p.120	0:17 unclass:no_rel_found_by_AGWN(ἐπίγνωσις,Χριστόν);	1:7 repl_syn(αὐτοῦ,ἵνα);	2:8 repl_co-hypo(καὶ,γινώσκωσιν);	3 unclass:lemma_missing;	4:14 NOP(καὶ,καὶ); NOPmorph(c,c);	5:3 NOP(ἡ,ἡ); NOPmorph(ln,ln);	6:17 unclass:no_rel_found_by_AGWN(πρὸς,Χριστόν);	7:17 unclass:no_rel_found_by_AGWN(αὐτὸν,Χριστόν);	8 unclass:lemma_missing;	9:17 unclass:no_rel_found_by_AGWN(καὶ,Χριστόν);	10 unclass:lemma_missing;																								
Joh 14 8-10	http://www.biblindex.info/en/biblical/content/ref/GNT_Jn_14_8	23,2 p.160	0:28 lem(ἐγώ,με); repl_flex(n,a);	1:23 lem(σοι,ὑμῶν); repl_flex(d,g);	2:6 lem(δείξω,δεῖξον); NOPmorph(v,v);	3:33 repl_syn(θεοῦ,ἑωρακὼς);	4:9 lem(πατρὸς,πατέρα); repl_flex(g,a);	5:81 unclass:no_rel_found_by_AGWN(ἀγαθοῦ,αὐτοῦ);	6 unclass:lemma_missing;																												
Joh 14 8-11	http://www.biblindex.info/en/biblical/content/ref/GNT_Jn_14_8	23,2 p.160	0 unclass:lemma_missing;	1:26 repl_syn(μὴ,οὐκ);	2:104 unclass:no_rel_found_by_AGWN(κάλει,πιστεύετε);	3:104 unclass:no_rel_found_by_AGWN(σεαυτῷ,πιστεύετε);	4 unclass:lemma_missing;	5:11 repl_syn(ἐπὶ,καὶ);	6:81 repl_co-hypo(γῆς,ἔργα);	8 unclass:lemma_missing;																											
Joh 15 14-15	http://www.biblindex.info/en/biblical/content/ref/GNT_Jn_15_14	31,1 p.180	0 unclass:lemma_missing;	1 unclass:lemma_missing;																																	
Joh 13 34	http://www.biblindex.info/en/biblical/content/ref/GNT_Jn_13_34	37,4 p.194/196	0:15 unclass:no_rel_found_by_AGWN(ἀγάπην,ἀλλήλους);	1:3 NOP(ὑμῖν,ὑμῖν); NOPmorph(pd,pd);	2:15 unclass:no_rel_found_by_AGWN(δίδωμι,ἀλλήλους);	3:15 unclass:no_rel_found_by_AGWN(τὴν,ἀλλήλους);	4 unclass:lemma_missing;																														
Joh 14 27	http://www.biblindex.info/en/biblical/content/ref/GNT_Jn_14_27	37,4 p.194/196	0:24 unclass:no_rel_found_by_AGWN(ἀγάπην,δειλιάτω);	1:2 NOP(ὑμῖν,ὑμῖν); NOPmorph(pd,pd);	2:24 unclass:no_rel_found_by_AGWN(δίδωμι,δειλιάτω);	3:5 NOP(τὴν,τὴν); NOPmorph(la,la);	4 unclass:lemma_missing;																														
Joh 1 18	http://www.biblindex.info/en/biblical/content/ref/GNT_Jn_1_18	37,1 p.194	0 unclass:lemma_missing;	1:7 lem(τὸν,ὁ); repl_pos(l,p); repl_flex(a,n);	2 unclass:lemma_missing;	3:10 lem(τοῦ,τὸν); repl_flex(g,n);	4 unclass:lemma_missing;	6:14 unclass:no_rel_found_by_AGWN(ὃν,ἐξηγήσατο);	7:12 lem(ὁ,τοῦ); repl_flex(n,g);	8:5 NOP(μονογενὴς,μονογενὴς); NOPmorph(an,an);	9:0 lem(θεὸς,θεὸν); repl_pos(n,g); repl_flex(n,a);	10 unclass:lemma_missing;	11:14 unclass:no_rel_found_by_AGWN(ἐξηγήσατο,ἐξηγήσατο);																								
Joh 14 15	http://www.biblindex.info/en/biblical/content/ref/GNT_Jn_14_15	29,5 p.178	0:1 lem(ἀγαπᾷ,ἀγαπᾶτέ); NOPmorph(v,v);	1:7 unclass:no_rel_found_by_AGWN(δὲ,τηρήσετε);	2:7 unclass:no_rel_found_by_AGWN(Χριστὸν,τηρήσετε);	3 unclass:lemma_missing;	4:4 lem(ὁ,τὰς); repl_flex(n,a);	5:6 lem(τὸ,τὰς); NOPmorph(la,la);	6 unclass:lemma_missing;	7:2 repl_syn(αὐτοῦ,με);	8:7 unclass:no_rel_found_by_AGWN(ποιῶν,τηρήσετε);	9:7 unclass:no_rel_found_by_AGWN(καὶ,τηρήσετε);	10 unclass:lemma_missing;	11:7 unclass:no_rel_found_by_AGWN(αὐτοῦ,τηρήσετε);	12:7 unclass:no_rel_found_by_AGWN(τὰς,τηρήσετε);	13 unclass:lemma_missing;																					
Joh 15 13	http://www.biblindex.info/en/biblical/content/ref/GNT_Jn_15_13	37,5 p.196	0:14 unclass:no_rel_found_by_AGWN(εἰ,αὐτοῦ);	1:4 repl_co-hypo(δὲ,ἔχει);	2:8 lem(τὰς,τὴν); NOPmorph(la,la);	3:9 lem(ψυχὰς,ψυχὴν); NOPmorph(na,na);	4 unclass:lemma_missing;	5:13 lem(τοῖς,τῶν); repl_flex(d,g);	6 unclass:lemma_missing;	8:11 repl_co-hypo(καὶ,θῇ);	9 unclass:lemma_missing;	10:14 unclass:no_rel_found_by_AGWN(τὴν,αὐτοῦ);	11 unclass:lemma_missing;	12:14 unclass:no_rel_found_by_AGWN(πρὸς,αὐτοῦ);	13:14 unclass:no_rel_found_by_AGWN(τὸν,αὐτοῦ);	14:10 repl_co-hypo(σωτῆρα,αὐτοῦ);	15 unclass:lemma_missing;																				
Joh 21 5	http://www.biblindex.info/en/biblical/content/ref/GNT_Jn_21_5	31,1 p.180	0 unclass:lemma_missing;																																		
Joh 15 5-6	http://www.biblindex.info/en/biblical/content/ref/GNT_Jn_15_5	37,6 p.196	0:52 unclass:no_rel_found_by_AGWN(ἐλπίδα,καίεται);	1:52 unclass:no_rel_found_by_AGWN(κρειττόνων,καίεται);	2:17 repl_co-hypo(οὐκ,φέρει);	3:1 hyper(ἔχει,εἰμι);	5 unclass:lemma_missing;	6:10 hypo(ἐστιν,μένων);	8 unclass:lemma_missing;	9:26 hypo(ἐστιν,ποιεῖν);	11:24 lem(οὐκ,οὐ); NOPmorph(d,d);	12:32 hypo(ἔστι,μένῃ);	13:7 lem(κλῆμα,κλήματα); NOPmorph(nn,nn);	14:2 lem(τῆς,ἡ); repl_flex(g,n);	15:52 unclass:no_rel_found_by_AGWN(ἀεὶ,καίεται);	16:52 unclass:no_rel_found_by_AGWN(ζώσης,καίεται);	17 unclass:lemma_missing;	18:3 lem(ἀμπέλου,ἄμπελος); repl_flex(g,n);	20:52 unclass:no_rel_found_by_AGWN(ἐκκόπτεται,καίεται);	22:6 lem(τὸ,τὰ); repl_flex(a,n);	23:50 NOP(πῦρ,πῦρ); NOPmorph(na,na);	24:52 unclass:no_rel_found_by_AGWN(ἄθρουν,καίεται);	25:52 unclass:no_rel_found_by_AGWN(ἀναμένει,καίεται);														
Joh 5 26	http://www.biblindex.info/en/biblical/content/ref/GNT_Jn_5_26	6,4 p.118	0 unclass:lemma_missing;	1:5 lem(ζωῆς,ζωὴν); repl_flex(g,a);	2:16 unclass:no_rel_found_by_AGWN(αἰωνίου,ἑαυτῷ);	3 unclass:lemma_missing;	5:11 repl_syn(ἣν,τῷ);	6:2 NOP(ὁ,ὁ); NOPmorph(ln,ln);	7:12 lem(υἱὸς,υἱῷ); repl_flex(n,d);	8 unclass:lemma_missing;	9:16 unclass:no_rel_found_by_AGWN(ἡμῖν,ἑαυτῷ);																										
Joh 17 3	http://www.biblindex.info/en/biblical/content/ref/GNT_Jn_17_3	7,1 p.118	0:1 repl_co-hypo(Οὐκοῦν,δέ);	1:3 lem(τὸ,ἡ); repl_flex(a,n);	2 unclass:lemma_missing;	3:8 repl_co-hypo(καὶ,γινώσκωσιν);	4 unclass:lemma_missing;	5:10 lem(τῶν,τὸν); repl_flex(g,a);	6:17 unclass:no_rel_found_by_AGWN(πρὸς,Χριστόν);	7:17 unclass:no_rel_found_by_AGWN(τὴν,Χριστόν);	8:5 lem(ζωὴν,ζωή); repl_flex(a,n);																										
Joh 17 2	http://www.biblindex.info/en/biblical/content/ref/GNT_Jn_17_2	6,4 p.118	0 unclass:lemma_missing;	1:14 lem(ζωῆς,ζωὴν); repl_flex(g,a);	2:13 unclass:no_rel_found_by_AGWN(αἰωνίου,αἰώνιον);	3 unclass:lemma_missing;	5:9 lem(ἣν,ὃ); NOPmorph(pa,pa);	6:13 unclass:no_rel_found_by_AGWN(ὁ,αἰώνιον);	7:13 unclass:no_rel_found_by_AGWN(υἱὸς,αἰώνιον);	8 unclass:lemma_missing;	9:2 repl_syn(ἡμῖν,αὐτῷ);																										
Rm 8 19-21	http://www.biblindex.info/en/biblical/content/ref/GNT_Rm_8_19	29,4 p.176/178	0:27 unclass:no_rel_found_by_AGWN(διότι,ἑλπίδι);	1:20 repl_syn(καὶ,οὐχ);	2:28 repl_co-hypo(αὐτοὶ,ἑλπίδι);	3 unclass:lemma_missing;	4:25 unclass:no_rel_found_by_AGWN(ἀπὸ,ἐφ’);	5:0 lem(τῆς,ἡ); repl_flex(g,n);	6 unclass:lemma_missing;	7:3 lem(τοῦ,τῆς); NOPmorph(lg,lg);	8 unclass:lemma_missing;	9:25 unclass:no_rel_found_by_AGWN(παρὰ,ἐφ’);	10:5 NOP(τὴν,τὴν); NOPmorph(la,la);	11:25 unclass:no_rel_found_by_AGWN(ἀποκάλυψιν,ἐφ’);	12:7 lem(τῆς,τῶν); NOPmorph(lg,lg);	13:25 unclass:no_rel_found_by_AGWN(δόξης,ἐφ’);	14:9 lem(τῶν,τοῦ); NOPmorph(lg,lg);	15:8 NOP(υἱῶν,υἱῶν); NOPmorph(ng,ng);	16:13 lem(τοῦ,τῇ); repl_flex(g,d);	17:10 NOP(θεοῦ,θεοῦ); NOPmorph(ng,ng);	19:25 unclass:no_rel_found_by_AGWN(τοῦτον,ἐφ’);	20:25 unclass:no_rel_found_by_AGWN(οὖν,ἐφ’);	21:25 unclass:no_rel_found_by_AGWN(ἀγαπᾶν,ἐφ’);	22:27 repl_syn(ἴσα,ἐφ’);	23:24 unclass:no_rel_found_by_AGWN(χρὴ,ὑποτάξαντα);	24:16 lem(τῷ,ἡ); repl_flex(d,n);	25:24 unclass:no_rel_found_by_AGWN(θεῷ,ὑποτάξαντα);										
Rm 5 3	http://www.biblindex.info/en/biblical/content/ref/GNT_Rm_5_3	25,6 p.164	0:0 repl_syn(οὕτω,οὐ);	1:4 repl_syn(καὶ,ἀλλὰ);	2 unclass:lemma_missing;	3:8 lem(ἡ,ταῖς); repl_flex(n,d);	4:15 unclass:no_rel_found_by_AGWN(μὲν,κατεργάζεται);	5:15 unclass:no_rel_found_by_AGWN(ἔξωθεν,κατεργάζεται);	6 unclass:lemma_missing;	7:15 unclass:no_rel_found_by_AGWN(δοκιμασίαν,κατεργάζεται);	8:15 unclass:no_rel_found_by_AGWN(κατεργάζεται,κατεργάζεται);																										
Rm 14 9	http://www.biblindex.info/en/biblical/content/ref/GNT_Rm_14_9	42,19 p.222	0 unclass:lemma_missing;	1:3 lem(Χριστοῦ,Χριστὸς); repl_flex(g,n);	3:11 unclass:no_rel_found_by_AGWN(τοῦ,κυριεύσῃ);	4 unclass:lemma_missing;	5:11 unclass:no_rel_found_by_AGWN(ζώντων,κυριεύσῃ);	6:5 NOP(καὶ,καὶ); NOPmorph(c,c);	7:9 NOP(νεκρῶν,νεκρῶν); NOPmorph(ng,ng);																												
Rm 11 36a	http://www.biblindex.info/en/biblical/content/ref/GNT_Rm_11_36	27,3 p.172	0:2 NOP(αὐτοῦ,αὐτοῦ); repl_pos(p,l);	1:9 lem(τοῦ,τὰ); repl_flex(g,n);	2:14 repl_syn(θεοῦ,δόξα);	3:17 unclass:no_rel_found_by_AGWN(πατρὸς,ἀμήν);	4:5 repl_syn(ἡμῶν,αὐτοῦ);	6:4 lem(δι',δι’); NOPmorph(r,r);	7:17 unclass:no_rel_found_by_AGWN(οὗ,ἀμήν);	8:3 NOP(καὶ,καὶ); NOPmorph(c,c);	9 unclass:lemma_missing;	10:6 NOP(καὶ,καὶ); NOPmorph(c,c);	11:17 unclass:no_rel_found_by_AGWN(ἔστι,ἀμήν);	12:13 lem(τὰ,ἡ); NOPmorph(ln,ln);	13 unclass:lemma_missing;																						
Rm 11 36	http://www.biblindex.info/en/biblical/content/ref/GNT_Rm_11_36	1,1 p.100	0:1 NOP(ἐξ,ἐξ); NOPmorph(r,r);	1:17 unclass:no_rel_found_by_AGWN(οὗ,ἀμήν);	2:9 NOP(τὰ,τὰ); NOPmorph(ln,ln);	3 unclass:lemma_missing;	4:3 NOP(καὶ,καὶ); NOPmorph(c,c);	5:4 lem(δι',δι’); NOPmorph(r,r);	6:17 unclass:no_rel_found_by_AGWN(οὗ,ἀμήν);	7:13 lem(τὰ,ἡ); NOPmorph(ln,ln);	8 unclass:lemma_missing;	9:6 NOP(καὶ,καὶ); NOPmorph(c,c);	10:7 NOP(εἰς,εἰς); NOPmorph(r,r);	11:17 unclass:no_rel_found_by_AGWN(ὃν,ἀμήν);	12:16 lem(τὰ,τοὺς); repl_flex(n,a);	13 unclass:lemma_missing;																					
Rm 8 17	http://www.biblindex.info/en/biblical/content/ref/GNT_Rm_8_17	36,1-2 p.194	0 unclass:lemma_missing;	1:2 repl_co-hypo(αὐτοῦ,τέκνα);	2:18 unclass:no_rel_found_by_AGWN(γνήσιον,συνδοξασθῶμεν);	3:4 NOP(καὶ,καὶ); NOPmorph(c,c);	4 unclass:lemma_missing;																														
1Co 12 30	http://www.biblindex.info/en/biblical/content/ref/GNT_1Co_12_30	38,2 p.196/198	0:0 repl_syn(οὐ,μὴ);	1 unclass:lemma_missing;	3:2 repl_co-hypo(οὐ,χαρίσματα);	4 unclass:lemma_missing;	6:3 repl_co-hypo(οὐκ,ἔχουσιν);	7:12 unclass:no_rel_found_by_AGWN(ἐπιχαίρει,διερμηνεύουσιν);	8:12 unclass:no_rel_found_by_AGWN(τῇ,διερμηνεύουσιν);	9 unclass:lemma_missing;	11 unclass:lemma_missing;	12:12 unclass:no_rel_found_by_AGWN(δὲ,διερμηνεύουσιν);	13:12 unclass:no_rel_found_by_AGWN(τῇ,διερμηνεύουσιν);	14 unclass:lemma_missing;	16 unclass:lemma_missing;	17 unclass:lemma_missing;	19 unclass:lemma_missing;	20 unclass:lemma_missing;	22 unclass:lemma_missing;	23:12 unclass:no_rel_found_by_AGWN(ἐλπίζει,διερμηνεύουσιν);	25 unclass:lemma_missing;	26 unclass:lemma_missing;	28:12 unclass:no_rel_found_by_AGWN(ἡ,διερμηνεύουσιν);	29 unclass:lemma_missing;	30 unclass:lemma_missing;	31:12 unclass:no_rel_found_by_AGWN(ἐκπίπτει,διερμηνεύουσιν);	33 unclass:lemma_missing;	34:12 unclass:no_rel_found_by_AGWN(καταργοῦνται,διερμηνεύουσιν);	36:8 lem(γλῶσσαι,γλώσσαις); repl_flex(n,d);	37 unclass:lemma_missing;							
1Co 12 31	http://www.biblindex.info/en/biblical/content/ref/GNT_1Co_12_31	38,1 p.196	0:12 lem(Σὺ,ὑμῖν); repl_flex(n,d);	1:1 NOP(δὲ,δὲ); NOPmorph(g,g);	2 unclass:lemma_missing;	3:2 lem(τὴν,τὰ); NOPmorph(la,la);	4 unclass:lemma_missing;	5:9 lem(καθ',καθ’); NOPmorph(r,r);	6 unclass:lemma_missing;	7:10 NOP(ὑπερβολὴν,ὑπερβολὴν); NOPmorph(na,na);	8 unclass:lemma_missing;	9 unclass:lemma_missing;																									
1Co 13 13	http://www.biblindex.info/en/biblical/content/ref/GNT_1Co_13_13	18,1 p.146	0 unclass:lemma_missing;	1:16 unclass:no_rel_found_by_AGWN(καὶ,ἀγάπη);	2:16 unclass:no_rel_found_by_AGWN(ἐλπίδι,ἀγάπη);	3:16 unclass:no_rel_found_by_AGWN(καὶ,ἀγάπη);	4 unclass:lemma_missing;																														
1Co 11 25	http://www.biblindex.info/en/biblical/content/ref/GNT_1Co_11_25	29,4 p.176/178	0:10 lem(οὗτος,Τοῦτο); NOPmorph(pn,pn);	1 unclass:lemma_missing;	2:2 lem(τὸν,τὸ); NOPmorph(la,la);	3:31 unclass:no_rel_found_by_AGWN(οἶνον,ἀνάμνησιν);	5:5 NOP(τὸ,τὸ); NOPmorph(la,la);	6:20 lem(αἷμα,αἵματι); repl_flex(a,d);	7:11 lem(τῆς,τὸ); repl_flex(g,n);	8:31 unclass:no_rel_found_by_AGWN(ἀμπέλου,ἀνάμνησιν);	9:13 lem(τῆς,ἡ); repl_flex(g,n);	10 unclass:lemma_missing;	12 unclass:lemma_missing;	13:31 unclass:no_rel_found_by_AGWN(ἡμῶν,ἀνάμνησιν);	14:1 repl_syn(ἐπὶ,καὶ);	15:18 lem(τὰς,τῷ); repl_flex(a,d);	16 unclass:lemma_missing;	17 unclass:lemma_missing;																			
1Co 3 13	http://www.biblindex.info/en/biblical/content/ref/GNT_1Co_3_13	25,6 p.164	0:16 repl_syn(οὕτω,καὶ);	1:8 repl_co-hypo(καὶ,ἡμέρα);	2 unclass:lemma_missing;	3:1 lem(ἡ,τὸ); NOPmorph(ln,ln);	4:23 unclass:no_rel_found_by_AGWN(μὲν,δοκιμάσει);	5:23 unclass:no_rel_found_by_AGWN(ἔξωθεν,δοκιμάσει);	6 unclass:lemma_missing;	7:23 unclass:no_rel_found_by_AGWN(δοκιμασίαν,δοκιμάσει);	8:23 unclass:no_rel_found_by_AGWN(κατεργάζεται,δοκιμάσει);																										
1Co 8 6	http://www.biblindex.info/en/biblical/content/ref/GNT_1Co_8_6	27,3 p.172	0:1 repl_syn(αὐτοῦ,ἡμῖν);	1:4 lem(τοῦ,ὁ); repl_flex(g,n);	2:3 lem(θεοῦ,θεὸς); repl_flex(g,n);	3:5 lem(πατρὸς,πατήρ); repl_flex(g,n);	4:12 lem(ἡμῶν,ἡμεῖς); repl_flex(g,b);	6:22 lem(δι',δι’); NOPmorph(r,r);	7:8 NOP(οὗ,οὗ); repl_pos(p,l);	8:0 repl_syn(καὶ,ἀλλ’);	9 unclass:lemma_missing;	10:11 NOP(καὶ,καὶ); NOPmorph(c,c);	11:28 unclass:no_rel_found_by_AGWN(ἔστι,αὐτοῦ);	12:9 NOP(τὰ,τὰ); NOPmorph(ln,ln);	13 unclass:lemma_missing;																						
1Co 12 9	http://www.biblindex.info/en/biblical/content/ref/GNT_1Co_12_9	38,2 p.196/198	0:10 repl_syn(ἰάσεις,ἰαμάτων);																																		
1Co 13 13a	http://www.biblindex.info/en/biblical/content/ref/GNT_1Co_13_13	29,4 p.176/178	0:16 unclass:no_rel_found_by_AGWN(ἀγάπην,ἀγάπη);	2 unclass:lemma_missing;	4:16 unclass:no_rel_found_by_AGWN(ἐλπίδα,ἀγάπη);																																
1Co 13 13b	http://www.biblindex.info/en/biblical/content/ref/GNT_1Co_13_13	38,2 p.196/198	0 unclass:lemma_missing;	1:1 NOP(δὲ,δὲ); NOPmorph(g,g);	2:9 NOP(τὰ,τὰ); repl_flex(a,n);	3 unclass:lemma_missing;	4:11 NOP(ταῦτα,ταῦτα); repl_flex(a,n);	6 unclass:lemma_missing;	8 unclass:lemma_missing;	10 unclass:lemma_missing;	12 unclass:lemma_missing;	13:14 NOP(δὲ,δὲ); NOPmorph(g,g);	14:16 unclass:no_rel_found_by_AGWN(ἐν,ἀγάπη);	15 unclass:lemma_missing;	16:16 NOP(ἡ,ἡ); repl_flex(n,'');	17 unclass:lemma_missing;																					
1Co 13 4-8	http://www.biblindex.info/en/biblical/content/ref/GNT_1Co_13_4	38,2 p.196/198	0:8 NOP(οὐ,οὐ); NOPmorph(d,d);	1 unclass:lemma_missing;	3:11 NOP(οὐ,οὐ); NOPmorph(d,d);	4 unclass:lemma_missing;	6:14 lem(οὐκ,οὐ); NOPmorph(d,d);	7:73 unclass:no_rel_found_by_AGWN(ἐπιχαίρει,καταργηθήσεται);	8:0 lem(τῇ,Ἡ); repl_flex(d,n);	9 unclass:lemma_missing;	11 unclass:lemma_missing;	12:40 NOP(δὲ,δὲ); NOPmorph(g,g);	13:5 lem(τῇ,ἡ); repl_flex(d,n);	14 unclass:lemma_missing;	16 unclass:lemma_missing;	17 unclass:lemma_missing;	19 unclass:lemma_missing;	20 unclass:lemma_missing;	22 unclass:lemma_missing;	23:73 unclass:no_rel_found_by_AGWN(ἐλπίζει,καταργηθήσεται);	25 unclass:lemma_missing;	26 unclass:lemma_missing;	28:22 lem(ἡ,τὰ); repl_flex(n,a);	29 unclass:lemma_missing;	30 unclass:lemma_missing;	31:73 unclass:no_rel_found_by_AGWN(ἐκπίπτει,καταργηθήσεται);	33 unclass:lemma_missing;	34:65 lem(καταργοῦνται,καταργηθήσονται); NOPmorph(v,v);	36:68 NOP(γλῶσσαι,γλῶσσαι); NOPmorph(nn,nn);	37 unclass:lemma_missing;							
2Co 9 6a	http://www.biblindex.info/en/biblical/content/ref/GNT_2Co_9_6	31,8 p.182	0:7 NOP(καὶ,καὶ); NOPmorph(c,c);	1:17 unclass:no_rel_found_by_AGWN(μὴ,θερίσει);	2 unclass:lemma_missing;	3 unclass:lemma_missing;	5:17 unclass:no_rel_found_by_AGWN(ἵνα,θερίσει);	6:17 unclass:no_rel_found_by_AGWN(μὴ,θερίσει);	7:10 repl_syn(οὕτως,καὶ);	8:13 repl_syn(καὶ,ἐπ’);	9 unclass:lemma_missing;																										
2Co 1 3	http://www.biblindex.info/en/biblical/content/ref/GNT_2Co_1_3	39,6 p.202	0:17 unclass:no_rel_found_by_AGWN(εἰ,παρακλήσεως);	1:4 repl_co-hypo(δὲ,πατὴρ);	2:7 lem(ἡμεῖς,ἡμῶν); repl_flex(n,g);	3:17 unclass:no_rel_found_by_AGWN(πονηροὶ,παρακλήσεως);	4:17 unclass:no_rel_found_by_AGWN(ὄντες,παρακλήσεως);	5:6 hypo(ἴσμεν,κυρίου);	6:17 unclass:no_rel_found_by_AGWN(ἀγαθὰ,παρακλήσεως);	7:17 unclass:no_rel_found_by_AGWN(δόματα,παρακλήσεως);	8:17 unclass:no_rel_found_by_AGWN(διδόναι,παρακλήσεως);	10 unclass:lemma_missing;	11:17 unclass:no_rel_found_by_AGWN(μᾶλλον,παρακλήσεως);	12 unclass:lemma_missing;	13:1 NOP(ὁ,ὁ); NOPmorph(ln,ln);	14:12 NOP(πατὴρ,πατὴρ); NOPmorph(nn,nn);	15:5 lem(τῶν,τοῦ); repl_pos(l,p);	16:14 NOP(οἰκτιρμῶν,οἰκτιρμῶν); NOPmorph(ng,ng);	17 unclass:lemma_missing;																		
2Co 1 3a	http://www.biblindex.info/en/biblical/content/ref/GNT_2Co_1_3	39,6 p.202	0:4 NOP(πατὴρ,πατὴρ); NOPmorph(nn,nn);	1 unclass:lemma_missing;	2 unclass:lemma_missing;	3 unclass:lemma_missing;																															
2Co 9 6	http://www.biblindex.info/en/biblical/content/ref/GNT_2Co_9_6	31,8 p.182	0:17 unclass:no_rel_found_by_AGWN(ἱλαρὸν,θερίσει);	1:17 unclass:no_rel_found_by_AGWN(γὰρ,θερίσει);	2:17 unclass:no_rel_found_by_AGWN(δότην,θερίσει);	4:17 unclass:no_rel_found_by_AGWN(ἀγαπᾷ,θερίσει);	5:3 NOP(ὁ,ὁ); NOPmorph(ln,ln);	6 unclass:lemma_missing;																													
2Co 4 7	http://www.biblindex.info/en/biblical/content/ref/GNT_2Co_4_7	34,1 p.188/190	0:0 hyper(θησαυρὸν,Ἔχομεν);	1:5 NOP(ἐν,ἐν); NOPmorph(r,r);	2 unclass:lemma_missing;	3 unclass:lemma_missing;																															
2Co 5 19	http://www.biblindex.info/en/biblical/content/ref/GNT_2Co_5_19	39,5 p.202	0 unclass:lemma_missing;	1 unclass:lemma_missing;																																	
2Co 4 18	http://www.biblindex.info/en/biblical/content/ref/GNT_2Co_4_18	25,8 p.166	0 unclass:lemma_missing;	1:3 NOP(τὰ,τὰ); repl_flex(n,a);	2:11 NOP(γὰρ,γὰρ); NOPmorph(g,g);	3:18 unclass:no_rel_found_by_AGWN(βλεπόμενα,αἰώνια);	4 unclass:lemma_missing;	6:6 NOP(τὰ,τὰ); repl_flex(n,a);	7:5 repl_syn(δὲ,ἀλλὰ);	8:0 NOP(μὴ,μὴ); NOPmorph(d,d);	9:18 unclass:no_rel_found_by_AGWN(βλεπόμενα,αἰώνια);	10:18 unclass:no_rel_found_by_AGWN(αἰώνια,αἰώνια);	12 unclass:lemma_missing;																								
Ga 6 7	http://www.biblindex.info/en/biblical/content/ref/GNT_Ga_6_7	41,7 p.208	0:3 NOP(θεὸς,θεὸς); NOPmorph(nn,nn);	1:0 repl_syn(οὐ,Μὴ);	2 unclass:lemma_missing;																																
Ga 3 21	http://www.biblindex.info/en/biblical/content/ref/GNT_Ga_3_21	12,1 p.130	0 unclass:lemma_missing;	1:1 NOP(οὖν,οὖν); NOPmorph(g,g);	2:23 unclass:no_rel_found_by_AGWN(ὡς,δικαιοσύνη);	3:23 unclass:no_rel_found_by_AGWN(καινὸν,δικαιοσύνη);	4:23 unclass:no_rel_found_by_AGWN(καὶ,δικαιοσύνη);	5:23 unclass:no_rel_found_by_AGWN(ἴδιον,δικαιοσύνη);	6:23 unclass:no_rel_found_by_AGWN(θεοῦ,δικαιοσύνη);	7 unclass:lemma_missing;	8:23 unclass:no_rel_found_by_AGWN(καὶ,δικαιοσύνη);	9 unclass:lemma_missing;	10:23 unclass:no_rel_found_by_AGWN(ζωοποιοῦν,δικαιοσύνη);																								
Ep 6 12	http://www.biblindex.info/en/biblical/content/ref/GNT_Ep_6_12	29,2 p.176	0:33 unclass:no_rel_found_by_AGWN(ὑπὸ,ἐπουρανίοις);	1:4 lem(τῶν,ἡ); repl_flex(g,n);	2 unclass:lemma_missing;	3:13 lem(τοῦ,τὰς); repl_flex(g,a);	4 unclass:lemma_missing;																														
Ph 2 14	http://www.biblindex.info/en/biblical/content/ref/GNT_Ph_2_14	31,8 p.182	0:4 unclass:no_rel_found_by_AGWN(δίχα,διαλογισμῶν);	1:3 NOP(γογγυσμῶν,γογγυσμῶν); repl_pos(t,n);																																	
1Ti 1 17	http://www.biblindex.info/en/biblical/content/ref/GNT_1Tm_1_17	35,2 p.192	0:0 NOP(τῷ,τῷ); NOPmorph(ld,ld);	1:2 NOP(βασιλεῖ,βασιλεῖ); NOPmorph(nd,nd);	2:3 NOP(τῶν,τῶν); NOPmorph(lg,lg);	3 unclass:lemma_missing;																															
He 6 4-5	http://www.biblindex.info/en/biblical/content/ref/GNT_He_6_4	34,2 p.190	0:2 lem(ὁ,τοὺς); repl_pos(p,l); repl_flex(n,a);	1:24 unclass:no_rel_found_by_AGWN(γεγευμένος,αἰῶνος);	2:24 unclass:no_rel_found_by_AGWN(ἀληθείας,αἰῶνος);																																
He 1 14	http://www.biblindex.info/en/biblical/content/ref/GNT_He_1_14	29,4 p.176/178	0:11 unclass:no_rel_found_by_AGWN(οὗτος,σωτηρίαν);	1:9 lem(ὁ,τοὺς); repl_pos(p,l); repl_flex(n,a);	2:6 repl_syn(διακονεῖν,διακονίαν);	3:11 unclass:no_rel_found_by_AGWN(ἀγγέλους,σωτηρίαν);	4:0 repl_syn(καὶ,οὐχὶ);	5:11 unclass:no_rel_found_by_AGWN(ἀρχὰς,σωτηρίαν);	6:11 unclass:no_rel_found_by_AGWN(καὶ,σωτηρίαν);	7:11 unclass:no_rel_found_by_AGWN(ἐξουσίας,σωτηρίαν);	8:11 unclass:no_rel_found_by_AGWN(ἡμῖν,σωτηρίαν);	9:11 unclass:no_rel_found_by_AGWN(ἐπιτάξας,σωτηρίαν);	10:11 unclass:no_rel_found_by_AGWN(ἐπὶ,σωτηρίαν);	11 unclass:lemma_missing;	12:2 repl_co-hypo(μισθῷ,εἰσὶν);																						
He 2 10	http://www.biblindex.info/en/biblical/content/ref/GNT_He_2_10	27,3 p.172	0:2 lem(αὐτοῦ,αὐτῷ); repl_flex(g,d);	1:6 lem(τοῦ,τὰ); repl_flex(g,a);	2:17 repl_syn(θεοῦ,δόξαν);	3:18 repl_co-hypo(πατρὸς,ἀγαγόντα);	4:23 repl_syn(ἡμῶν,αὐτῶν);	6:4 lem(δι',δι’); NOPmorph(r,r);	7:5 lem(οὗ,ὃν); repl_pos(p,l); repl_flex(g,a);	8:8 NOP(καὶ,καὶ); NOPmorph(c,c);	9 unclass:lemma_missing;	10:25 unclass:no_rel_found_by_AGWN(καὶ,τελειῶσαι);	11:25 unclass:no_rel_found_by_AGWN(ἔστι,τελειῶσαι);	12:11 NOP(τὰ,τὰ); repl_flex(n,a);	13 unclass:lemma_missing;																						
He 4 12	http://www.biblindex.info/en/biblical/content/ref/GNT_He_4_12	41,7 p.208	0 unclass:lemma_missing;	1 unclass:lemma_missing;	2:31 unclass:no_rel_found_by_AGWN(καρδίας,καρδίας);																																
1Pe 4 8	http://www.biblindex.info/en/biblical/content/ref/GNT_1P_4_8	38,2 p.196	0 unclass:lemma_missing;	1:12 unclass:no_rel_found_by_AGWN(καλύπτει,ἁμαρτιῶν);	2:7 repl_co-hypo(πλῆθος,ἔχοντες);	3:13 NOP(ἁμαρτιῶν,ἁμαρτιῶν); NOPmorph(ng,ng);																															
1Pe 4 9	http://www.biblindex.info/en/biblical/content/ref/GNT_1P_4_9	31,8 p.182	0:3 unclass:no_rel_found_by_AGWN(δίχα,γογγυσμοῦ);	1:4 lem(γογγυσμῶν,γογγυσμοῦ); repl_pos(t,n);																																	
2Pe 3 10-11	http://www.biblindex.info/en/biblical/content/ref/GNT_2P_3_10	36,3 p.194	0 unclass:lemma_missing;	1:39 unclass:no_rel_found_by_AGWN(ἂν,εὐσεβείαις);	2:39 unclass:no_rel_found_by_AGWN(ἐνταῦθα,εὐσεβείαις);	3:9 lem(τὸ,οἱ); NOPmorph(ln,ln);	4 unclass:lemma_missing;	5 unclass:lemma_missing;	7 unclass:lemma_missing;	9:2 repl_co-hypo(καὶ,ἡμέρα);	10 unclass:lemma_missing;	11:24 lem(αὐτοῦ,αὐτῇ); repl_pos(p,n); repl_flex(g,d);	12 unclass:lemma_missing;	13 unclass:lemma_missing;	14 unclass:lemma_missing;																						
1Joh 3 12	http://www.biblindex.info/en/biblical/content/ref/GNT_1Jn_3_12	37,6 p.196	0 unclass:lemma_missing;	1:4 NOP(τοῦ,τοῦ); NOPmorph(lg,lg);	2 unclass:lemma_missing;																																
1Joh 3 15	http://www.biblindex.info/en/biblical/content/ref/GNT_1Jn_3_15	37,6 p.196	0:1 NOP(ὁ,ὁ); NOPmorph(ln,ln);	1:14 repl_syn(μὴ,οὐκ);	2 unclass:lemma_missing;	3:3 NOP(τὸν,τὸν); NOPmorph(la,la);	4 unclass:lemma_missing;	5 unclass:lemma_missing;	6 unclass:lemma_missing;																												
1Joh 4 18	http://www.biblindex.info/en/biblical/content/ref/GNT_1Jn_4_18	38,2 p.196/198	0:4 lem(ἡ,τῇ); repl_flex(n,d);	1 unclass:lemma_missing;	2 unclass:lemma_missing;	3:28 unclass:no_rel_found_by_AGWN(ἐκβάλλει,ἀγάπῃ);	4:8 lem(τὸν,ἡ); repl_flex(a,n);	5 unclass:lemma_missing;																													
1Joh 4 19	http://www.biblindex.info/en/biblical/content/ref/GNT_1Jn_4_19	27,3 p.172	0:6 unclass:no_rel_found_by_AGWN(ὑπὸ,ἡμᾶς);	1 unclass:lemma_missing;	2 unclass:lemma_missing;	3 unclass:lemma_missing;																															
1Joh 3 8	http://www.biblindex.info/en/biblical/content/ref/GNT_1Jn_3_8	37,6 p.196	0:28 unclass:no_rel_found_by_AGWN(θρέμμα,διαβόλου);	1:0 lem(τοῦ,ὁ); repl_pos(p,l); repl_flex(g,n);	2:28 unclass:no_rel_found_by_AGWN(διαβόλου,διαβόλου);																																
1Joh 4 12	http://www.biblindex.info/en/biblical/content/ref/GNT_1Jn_4_12	37,1 p.194	0:3 lem(θεῶ,τεθέαται); NOPmorph(v,v);	1:9 lem(τὰ,ὁ); repl_flex(a,n);	2:15 lem(τῆς,ἡ); repl_flex(g,n);	3:20 unclass:no_rel_found_by_AGWN(ἀγάπης,ἐστιν);	4 unclass:lemma_missing;																														
1Joh 4 16	http://www.biblindex.info/en/biblical/content/ref/GNT_1Jn_4_16	37,1 p.194	0:4 repl_co-hypo(θεῶ,πεπιστεύκαμεν);	1:5 lem(τὰ,τὴν); NOPmorph(la,la);	2:9 lem(τῆς,ὁ); repl_flex(g,n);	3:33 unclass:no_rel_found_by_AGWN(ἀγάπης,μένει);	4 unclass:lemma_missing;																														
1Joh 4 8	http://www.biblindex.info/en/biblical/content/ref/GNT_1Jn_4_8	37,1 p.194	0:12 lem(ἔστι,ἐστίν); NOPmorph(h,h);	1:10 unclass:no_rel_found_by_AGWN(δὲ,ἀγάπη);	2:3 repl_syn(καὶ,οὐκ);	3:10 unclass:no_rel_found_by_AGWN(αὐτὸς,ἀγάπη);	4:0 NOP(ὁ,ὁ); NOPmorph(ln,ln);	5:6 lem(θεὸς,θεόν); repl_flex(n,a);	6 unclass:lemma_missing;	7:4 repl_co-hypo(καὶ,ἔγνω);	8:10 unclass:no_rel_found_by_AGWN(δι',ἀγάπη);	9:10 unclass:no_rel_found_by_AGWN(ἀγάπην,ἀγάπη);	10:10 unclass:no_rel_found_by_AGWN(ἡμῖν,ἀγάπη);	11:10 unclass:no_rel_found_by_AGWN(ἐθεάθη,ἀγάπη);																							
